"lngstore","branch_code","store_name","store_type","store_type_long","store_type_abbr","store_division","store_lang_region","halaal_store","kosher_store","include_afr","exclude_store"
"933","52235","CH RESERVOIR HILLS","1","Checkers","CH","Natal Division","3","FALSE","FALSE","FALSE","FALSE"
"108","1179","CH DAVENPORT ROAD","1","Checkers","CH","Natal Division","3","FALSE","FALSE","FALSE","FALSE"
"42","2418","SR DUNDEE","5","Shoprite","SR","Natal Division","3","FALSE","FALSE","FALSE","FALSE"
"416","6810","CH HY PAVILION","9","Checkers Hyper","CA","Natal Division","3","FALSE","FALSE","FALSE","FALSE"
"67","8066","SR MATATIELE","5","Shoprite","SR","Natal Division","3","FALSE","FALSE","FALSE","FALSE"
"55","6763","CH SOUTHWAY MALL","1","Checkers","CH","Natal Division","3","FALSE","FALSE","FALSE","FALSE"
"1041","30465","SR MELMOTH","5","Shoprite","SR","Natal Division","3","FALSE","FALSE","FALSE","FALSE"
"33","6349","SR MOSSEL BAY","5","Shoprite","SR","Eastern Cape Division","1","FALSE","FALSE","TRUE","FALSE"
"1042","32695","SR PONGOLA","5","Shoprite","SR","Natal Division","3","FALSE","FALSE","TRUE","FALSE"
"424","7303","CH HY EASTGATE","9","Checkers Hyper","CA","Checkers GN Division","20","FALSE","FALSE","FALSE","FALSE"
"27","6234","SR QUEENSTOWN","5","Shoprite","SR","Eastern Cape Division","1","FALSE","FALSE","FALSE","FALSE"
"365","2387","SR CRADOCK","5","Shoprite","SR","Eastern Cape Division","1","FALSE","FALSE","TRUE","FALSE"
"58","6789","CH DURBAN NORTH","1","Checkers","CH","Natal Division","3","FALSE","FALSE","FALSE","FALSE"
"824","42680","SR HLUHLUWE","5","Shoprite","SR","Natal Division","3","FALSE","FALSE","TRUE","FALSE"
"370","6145","SR MT EDGECOMBE","5","Shoprite","SR","Natal Division","3","FALSE","FALSE","FALSE","FALSE"
"72","2442","SR STANGER","5","Shoprite","SR","Natal Division","3","FALSE","FALSE","FALSE","FALSE"
"402","547","SR CAXTON STREET","5","Shoprite","SR","Eastern Cape Division","1","FALSE","FALSE","FALSE","FALSE"
"26","6218","SR OXFORD STREET","5","Shoprite","SR","Eastern Cape Division","1","FALSE","FALSE","TRUE","FALSE"
"74","1129","SR TONGAAT","5","Shoprite","SR","Natal Division","3","FALSE","FALSE","FALSE","FALSE"
"802","44666","CH STANGER","1","Checkers","CH","Natal Division","3","FALSE","FALSE","FALSE","FALSE"
"1040","53736","SR WILLOW CORNER","5","Shoprite","SR","Gauteng Division","6","FALSE","FALSE","TRUE","FALSE"
"425","7311","CH HY FOURWAYS","9","Checkers Hyper","CA","Checkers GN Division","20","FALSE","FALSE","FALSE","FALSE"
"814","44632","SR ZIYABUYA","5","Shoprite","SR","Eastern Cape Division","1","FALSE","FALSE","FALSE","FALSE"
"1043","30481","CH CASTLE ROCK","1","Checkers","CH","Natal Division","3","FALSE","FALSE","TRUE","FALSE"
"985","50893","SR KWANOBUHLE","5","Shoprite","SR","Eastern Cape Division","1","FALSE","FALSE","TRUE","FALSE"
"1044","30732","CHHY PARKLANDS","9","Checkers Hyper","CA","Western Cape Division","2","FALSE","FALSE","TRUE","FALSE"
"77","1608","CH SCOTTSVILLE","1","Checkers","CH","Natal Division","3","FALSE","FALSE","FALSE","FALSE"
"1045","30342","CH MIDDELBURG MALL ","1","Checkers","CH","Checkers GN Division","20","FALSE","FALSE","TRUE","FALSE"
"25","1381","CH NAHOON","1","Checkers","CH","Eastern Cape Division","1","FALSE","FALSE","FALSE","FALSE"
"1046","31584","CH AIRPORT JUNCTION CENTRE","1","Checkers","CH","Botswana Division","18","FALSE","FALSE","FALSE","FALSE"
"187","1022","CH WELKOM","1","Checkers","CH","Northern Cape and O.F.S Division","5","FALSE","FALSE","TRUE","FALSE"
"1047","30376","CH NICOLWAY","1","Checkers","CH","Checkers GN Division","20","FALSE","FALSE","TRUE","FALSE"
"1005","55275","SR BERGVILLE","5","Shoprite","SR","Natal Division","3","FALSE","FALSE","TRUE","FALSE"
"1001","58639","SR KEMPTON PLACE","5","Shoprite","SR","Gauteng Division","6","FALSE","FALSE","TRUE","FALSE"
"1049","31877","SR BOITEKONG","5","Shoprite","SR","Northern Division","4","FALSE","FALSE","FALSE","FALSE"
"433","6551","CH HY TOKAI","9","Checkers Hyper","CA","Western Cape Division","2","FALSE","FALSE","TRUE","FALSE"
"399","2476","SR AMALINDA","5","Shoprite","SR","Eastern Cape Division","1","FALSE","FALSE","TRUE","FALSE"
"54","6802","CH QUEENSBURGH","1","Checkers","CH","Natal Division","3","FALSE","FALSE","FALSE","FALSE"
"52","6721","SR MONTCLAIR","5","Shoprite","SR","Natal Division","3","FALSE","FALSE","FALSE","FALSE"
"240","7696","SR MASERU","5","Shoprite","SR","Lesotho Divsion","17","FALSE","FALSE","FALSE","FALSE"
"908","51297","CH BEAUFORT WEST ","1","Checkers","CH","Eastern Cape Division","1","FALSE","FALSE","TRUE","FALSE"
"909","48937","SR TSUMEB ","5","Shoprite","SR","Namibia Division","8","FALSE","FALSE","TRUE","FALSE"
"961","47452","SR LOBITO","5","Shoprite","SR","Angola","26","FALSE","FALSE","FALSE","FALSE"
"944","51263","SR VOLKSRUST","5","Shoprite","SR","Natal Division","3","FALSE","FALSE","TRUE","FALSE"
"73","6624","SR SUNDUMBILI","5","Shoprite","SR","Natal Division","3","FALSE","FALSE","FALSE","FALSE"
"75","6632","SR ULUNDI","5","Shoprite","SR","Natal Division","3","FALSE","FALSE","FALSE","FALSE"
"62","2191","SR RICHARDS BAY","5","Shoprite","SR","Natal Division","3","FALSE","FALSE","FALSE","FALSE"
"82","979","CH AMANZIMTOTI","1","Checkers","CH","Natal Division","3","FALSE","FALSE","FALSE","FALSE"
"209","628","SR RIDGEWAY","5","Shoprite","SR","Gauteng Division","6","FALSE","FALSE","TRUE","FALSE"
"211","791","SR SOUTHDALE","5","Shoprite","SR","Gauteng Division","6","FALSE","FALSE","TRUE","FALSE"
"261","1111","SR BETHAL","5","Shoprite","SR","Gauteng Division","6","FALSE","FALSE","TRUE","FALSE"
"84","2060","SR MARGATE","5","Shoprite","SR","Natal Division","3","FALSE","FALSE","TRUE","FALSE"
"237","1420","SR MEYERTON","5","Shoprite","SR","Gauteng Division","6","FALSE","FALSE","TRUE","FALSE"
"275","2727","SR MIDRAND","5","Shoprite","SR","Gauteng Division","6","FALSE","FALSE","TRUE","FALSE"
"246","2329","SR BRAKPAN","5","Shoprite","SR","Gauteng Division","6","FALSE","FALSE","TRUE","FALSE"
"809","44810","SR EMPUMALANGA","5","Shoprite","SR","Eastern Cape Division","1","FALSE","FALSE","FALSE","FALSE"
"59","6658","SR EMPANGENI","5","Shoprite","SR","Natal Division","3","FALSE","FALSE","FALSE","FALSE"
"878","48377","SR MAFETENG","5","Shoprite","SR","Lesotho Divsion","17","FALSE","FALSE","FALSE","FALSE"
"889","48830","SR SONTONGA","5","Shoprite","SR","Gauteng Division","6","FALSE","FALSE","TRUE","FALSE"
"864","44925","SR BARA MALL","5","Shoprite","SR","Gauteng Division","6","FALSE","FALSE","FALSE","FALSE"
"1094","38617","SR NONGOMA TOWN","5","Shoprite","SR","Natal Division","3","FALSE","FALSE","FALSE","FALSE"
"286","7507","SR SS MARKS PARK","2","Super Store","SS","Gauteng Division","6","FALSE","FALSE","TRUE","FALSE"
"208","814","SR MAYFAIR","5","Shoprite","SR","Gauteng Division","6","TRUE","FALSE","FALSE","FALSE"
"960","41317","SR PALANCA","5","Shoprite","SR","Angola","26","FALSE","FALSE","FALSE","FALSE"
"19","7769","SR FRANCISTOWN","5","Shoprite","SR","Botswana Division","18","FALSE","FALSE","FALSE","FALSE"
"448","40222","SR SEFIKA","5","Shoprite","SR","Lesotho Divsion","17","FALSE","FALSE","FALSE","FALSE"
"456","40840","SR LUSIKISIKI","5","Shoprite","SR","Natal Division","3","FALSE","FALSE","FALSE","FALSE"
"789","42486","SR FLAGSTAFF","5","Shoprite","SR","Natal Division","3","FALSE","FALSE","FALSE","FALSE"
"36","204","CH PLETTENBERG BAY","1","Checkers","CH","Eastern Cape Division","1","FALSE","FALSE","TRUE","FALSE"
"997","58574","SR COSMO CITY","5","Shoprite","SR","Gauteng Division","6","FALSE","FALSE","FALSE","FALSE"
"1007","58223","SR HUAMBO","5","Shoprite","SR","Angola","26","FALSE","FALSE","FALSE","FALSE"
"110","2400","SR KOKSTAD","5","Shoprite","SR","Natal Division","3","FALSE","FALSE","FALSE","FALSE"
"959","47711","SR BELAS","5","Shoprite","SR","Angola","26","FALSE","FALSE","FALSE","FALSE"
"796","42737","SR LENASIA","5","Shoprite","SR","Gauteng Division","6","TRUE","FALSE","FALSE","FALSE"
"832","46066","SR LAFRENZE","5","Shoprite","SR","Namibia Division","8","FALSE","FALSE","FALSE","FALSE"
"65","2230","SR CHATSWORTH","5","Shoprite","SR","Natal Division","3","TRUE","FALSE","FALSE","FALSE"
"998","55283","SR ESIKHAWINI","5","Shoprite","SR","Natal Division","3","FALSE","FALSE","FALSE","FALSE"
"823","44836","SR KENTANI","5","Shoprite","SR","Eastern Cape Division","1","FALSE","FALSE","FALSE","FALSE"
"806","42973","CH CAPE GATE","1","Checkers","CH","Western Cape Division","2","FALSE","FALSE","TRUE","FALSE"
"873","42999","CH BIG BAY","1","Checkers","CH","Western Cape Division","2","FALSE","FALSE","TRUE","FALSE"
"337","6519","CH STELLENBOSCH","1","Checkers","CH","Western Cape Division","2","FALSE","FALSE","TRUE","FALSE"
"333","602","CH PAARL","1","Checkers","CH","Western Cape Division","2","FALSE","FALSE","TRUE","FALSE"
"328","6399","CH KENILWORTH","1","Checkers","CH","Western Cape Division","2","FALSE","FALSE","TRUE","FALSE"
"330","1399","CH PLUMSTEAD","1","Checkers","CH","Western Cape Division","2","FALSE","FALSE","TRUE","FALSE"
"986","57798","CH BREDASDORP","1","Checkers","CH","Western Cape Division","2","FALSE","FALSE","TRUE","FALSE"
"297","6373","SR ADDERLEY STREET","5","Shoprite","SR","Western Cape Division","2","FALSE","FALSE","TRUE","FALSE"
"294","1056","SR MILNERTON","5","Shoprite","SR","Western Cape Division","2","FALSE","FALSE","TRUE","FALSE"
"301","872","CH HOUT BAY","1","Checkers","CH","Western Cape Division","2","FALSE","FALSE","TRUE","FALSE"
"303","2256","CH RONDEBOSCH","1","Checkers","CH","Western Cape Division","2","FALSE","FALSE","TRUE","FALSE"
"299","1103","CH MEADOWRIDGE","1","Checkers","CH","Western Cape Division","2","FALSE","FALSE","TRUE","FALSE"
"308","2581","SR MITCHELLS PLAIN","5","Shoprite","SR","Western Cape Division","2","FALSE","FALSE","TRUE","FALSE"
"765","41082","SR KRAAIFONTEIN","5","Shoprite","SR","Western Cape Division","2","FALSE","FALSE","TRUE","FALSE"
"954","48898","SR MACASSAR","5","Shoprite","SR","Western Cape Division","2","FALSE","FALSE","TRUE","FALSE"
"828","46406","SR BLUE DOWNS","5","Shoprite","SR","Western Cape Division","2","FALSE","FALSE","TRUE","FALSE"
"892","43602","SR BROADWAY","5","Shoprite","SR","Western Cape Division","2","FALSE","FALSE","TRUE","FALSE"
"374","6420","SR SOMERSET WEST","5","Shoprite","SR","Western Cape Division","2","FALSE","FALSE","TRUE","FALSE"
"850","46286","SR STATION PLAZA","5","Shoprite","SR","Western Cape Division","2","FALSE","FALSE","TRUE","FALSE"
"306","131","SR GRABOUW","5","Shoprite","SR","Western Cape Division","2","FALSE","FALSE","TRUE","FALSE"
"821","45060","SR LENTEGEUR","5","Shoprite","SR","Western Cape Division","2","FALSE","FALSE","TRUE","FALSE"
"856","46228","SR CRAVENBY","5","Shoprite","SR","Western Cape Division","2","FALSE","FALSE","TRUE","FALSE"
"317","173","SR PAROW","5","Shoprite","SR","Western Cape Division","2","FALSE","FALSE","TRUE","FALSE"
"798","44713","SR PIKETBERG","5","Shoprite","SR","Western Cape Division","2","FALSE","FALSE","TRUE","FALSE"
"314","2361","SR KUILS RIVER","5","Shoprite","SR","Western Cape Division","2","FALSE","FALSE","TRUE","FALSE"
"323","385","SR VREDENDAL","5","Shoprite","SR","Western Cape Division","2","FALSE","FALSE","TRUE","FALSE"
"304","6543","SR SOUTHFIELD","5","Shoprite","SR","Western Cape Division","2","FALSE","FALSE","TRUE","FALSE"
"331","6569","SR WYNBERG","5","Shoprite","SR","Western Cape Division","2","FALSE","FALSE","TRUE","FALSE"
"936","48327","CH RASLOUW","1","Checkers","CH","Checkers GN Division","20","FALSE","FALSE","TRUE","FALSE"
"172","2450","SR UPINGTON","5","Shoprite","SR","Northern Cape and O.F.S Division","5","FALSE","FALSE","TRUE","FALSE"
"163","1412","SR KIMBERLEY","5","Shoprite","SR","Northern Cape and O.F.S Division","5","FALSE","FALSE","TRUE","FALSE"
"868","46171","CH DIAMOND PAVILLION","1","Checkers","CH","Northern Cape and O.F.S Division","5","FALSE","FALSE","TRUE","FALSE"
"178","953","SR MAFIKENG","5","Shoprite","SR","Northern Cape and O.F.S Division","5","FALSE","FALSE","FALSE","FALSE"
"421","7727","CH HY BLOEMFONTEIN","9","Checkers Hyper","CA","Northern Cape and O.F.S Division","5","FALSE","FALSE","TRUE","FALSE"
"175","2109","SR HARTSWATER","5","Shoprite","SR","Northern Cape and O.F.S Division","5","FALSE","FALSE","TRUE","FALSE"
"8","783","SR DE AAR","5","Shoprite","SR","Northern Cape and O.F.S Division","5","FALSE","FALSE","TRUE","FALSE"
"7","6284","CH DE AAR","1","Checkers","CH","Northern Cape and O.F.S Division","5","FALSE","FALSE","TRUE","FALSE"
"937","54041","SR SCHWEIZER RENEKE","5","Shoprite","SR","Northern Cape and O.F.S Division","5","FALSE","FALSE","TRUE","FALSE"
"790","42664","SR TAUNG","5","Shoprite","SR","Northern Cape and O.F.S Division","5","FALSE","FALSE","FALSE","FALSE"
"1000","63307","SR Costa Do Sol","5","Shoprite","SR","Mozambique Division","16","FALSE","FALSE","FALSE","FALSE"
"786","42266","CH LITTLE FALLS","1","Checkers","CH","Checkers GN Division","20","FALSE","FALSE","TRUE","FALSE"
"168","2222","SR KATHU","5","Shoprite","SR","Northern Cape and O.F.S Division","5","FALSE","FALSE","TRUE","FALSE"
"1023","58215","SR LUBANGO","5","Shoprite","SR","Angola","26","FALSE","FALSE","FALSE","FALSE"
"1025","30449","SR Mount Frere (2)","5","Shoprite","SR","Natal Division","3","FALSE","FALSE","FALSE","FALSE"
"169","725","SR KURUMAN","5","Shoprite","SR","Northern Cape and O.F.S Division","5","FALSE","FALSE","TRUE","FALSE"
"1027","30431","SR EDENDALE","5","Shoprite","SR","Natal Division","3","FALSE","FALSE","FALSE","FALSE"
"1029","30287","SR DAKU-IBHAYI","5","Shoprite","SR","Eastern Cape Division","1","FALSE","FALSE","FALSE","FALSE"
"114","709","SR ARCADIA","5","Shoprite","SR","Northern Division","4","FALSE","FALSE","TRUE","FALSE"
"165","987","SR KIMBERLEY","5","Shoprite","SR","Northern Cape and O.F.S Division","5","FALSE","FALSE","TRUE","FALSE"
"885","47892","SR ATTERIDGEVILLE","5","Shoprite","SR","Northern Division","4","FALSE","FALSE","FALSE","FALSE"
"973","52722","SR BATHO PLAZA","5","Shoprite","SR","Northern Division","4","FALSE","FALSE","FALSE","FALSE"
"121","7109","SR BRITS","5","Shoprite","SR","Northern Division","4","FALSE","FALSE","TRUE","FALSE"
"312","678","CH WELTEVREDEN","1","Checkers","CH","Western Cape Division","2","FALSE","FALSE","TRUE","FALSE"
"135","1975","SR BRONKHORSTSPRUIT","5","Shoprite","SR","Northern Division","4","FALSE","FALSE","TRUE","FALSE"
"281","2696","SR CARLETONVILLE","5","Shoprite","SR","Northern Division","4","FALSE","FALSE","TRUE","FALSE"
"136","2751","SR GROBLERSDAL","5","Shoprite","SR","Northern Division","4","FALSE","FALSE","TRUE","FALSE"
"904","50348","SR DENNILTON","5","Shoprite","SR","Northern Division","4","FALSE","FALSE","FALSE","FALSE"
"118","7002","SR ESSELEN STREET","5","Shoprite","SR","Northern Division","4","FALSE","FALSE","FALSE","FALSE"
"89","7117","SR GARANKUWA","5","Shoprite","SR","Northern Division","4","FALSE","FALSE","FALSE","FALSE"
"105","1632","SR GEZINA","5","Shoprite","SR","Northern Division","4","FALSE","FALSE","TRUE","FALSE"
"342","5238","SR GIYANI","5","Shoprite","SR","Northern Division","4","FALSE","FALSE","FALSE","FALSE"
"990","53037","SR HAZYVIEW","5","Shoprite","SR","Northern Division","4","FALSE","FALSE","TRUE","FALSE"
"901","48814","SR KABOKWENI","5","Shoprite","SR","Northern Division","4","FALSE","FALSE","FALSE","FALSE"
"838","41121","SR KANYAMAZANE","5","Shoprite","SR","Northern Division","4","FALSE","FALSE","FALSE","FALSE"
"984","58037","SR KLERKSDORP TERMINUS","5","Shoprite","SR","Northern Division","4","FALSE","FALSE","TRUE","FALSE"
"777","41731","SR LEBOWAGOMO","5","Shoprite","SR","Northern Division","4","FALSE","FALSE","FALSE","FALSE"
"375","741","SR LYTTELTON","5","Shoprite","SR","Northern Division","4","FALSE","FALSE","TRUE","FALSE"
"942","52691","SR MAAKE","5","Shoprite","SR","Northern Division","4","FALSE","FALSE","FALSE","FALSE"
"862","47923","SR MANKWENG","5","Shoprite","SR","Northern Division","4","FALSE","FALSE","FALSE","FALSE"
"90","6886","SR MARULA","5","Shoprite","SR","Northern Division","4","FALSE","FALSE","FALSE","FALSE"
"383","7060","SR METROPOLITAN","5","Shoprite","SR","Northern Division","4","FALSE","FALSE","TRUE","FALSE"
"138","440","SR MIDDELBURG","5","Shoprite","SR","Northern Division","4","FALSE","FALSE","TRUE","FALSE"
"1019","47907","SR MODJADJI ","5","Shoprite","SR","Northern Division","4","FALSE","FALSE","FALSE","FALSE"
"124","6878","SR MOGWASE","5","Shoprite","SR","Northern Division","4","FALSE","FALSE","FALSE","FALSE"
"965","52730","SR MUSSINA","5","Shoprite","SR","Northern Division","4","FALSE","FALSE","TRUE","FALSE"
"1002","58922","CH GOLDFIELDS","1","Checkers","CH","Northern Cape and O.F.S Division","5","FALSE","FALSE","TRUE","FALSE"
"18","1488","SR DESPATCH","5","Shoprite","SR","Eastern Cape Division","1","FALSE","FALSE","TRUE","FALSE"
"21","6307","SR UITENHAGE","5","Shoprite","SR","Eastern Cape Division","1","FALSE","FALSE","TRUE","FALSE"
"1034","31411","CH MIMOSA MALL","1","Checkers","CH","Northern Cape and O.F.S Division","5","FALSE","FALSE","TRUE","FALSE"
"1037","30017","SR HAMMANSKRAAL-KOPANONG","5","Shoprite","SR","Northern Division","4","FALSE","FALSE","TRUE","FALSE"
"1039","30334","CH BEN FLEUR","1","Checkers","CH","Checkers GN Division","20","FALSE","FALSE","TRUE","FALSE"
"1010","63420","SR NEW BRIGHTON","5","Shoprite","SR","Eastern Cape Division","1","FALSE","FALSE","FALSE","FALSE"
"313","2701","CH HY BRACKENFELL","9","Checkers Hyper","CA","Western Cape Division","2","FALSE","FALSE","TRUE","FALSE"
"20","6292","SR GOVAN MBEKI AVENUE","5","Shoprite","SR","Eastern Cape Division","1","FALSE","FALSE","TRUE","FALSE"
"14","6276","SR PIER 14","5","Shoprite","SR","Eastern Cape Division","1","FALSE","FALSE","TRUE","FALSE"
"2","775","SR GRAHAMSTOWN","5","Shoprite","SR","Eastern Cape Division","1","FALSE","FALSE","FALSE","FALSE"
"401","2507","CH KING WILLIAMS TOWN","1","Checkers","CH","Eastern Cape Division","1","FALSE","FALSE","TRUE","FALSE"
"9","2604","SR GRAAFF-REINET","5","Shoprite","SR","Eastern Cape Division","1","FALSE","FALSE","TRUE","FALSE"
"924","50908","CH MOFFET ON MAIN","1","Checkers","CH","Eastern Cape Division","1","FALSE","FALSE","TRUE","FALSE"
"5","1331","CH METLIFE PLAZA","1","Checkers","CH","Eastern Cape Division","1","FALSE","FALSE","TRUE","FALSE"
"930","48987","SR MDANTSANE CITY","5","Shoprite","SR","Eastern Cape Division","1","FALSE","FALSE","TRUE","FALSE"
"366","6129","CH ST GEORGE SQUARE","1","Checkers","CH","Eastern Cape Division","1","FALSE","FALSE","TRUE","FALSE"
"35","2052","CH OUDTSHOORN","1","Checkers","CH","Eastern Cape Division","1","FALSE","FALSE","TRUE","FALSE"
"1015","58647","SR KWANONQABA","5","Shoprite","SR","Eastern Cape Division","1","FALSE","FALSE","TRUE","FALSE"
"13","7468","SR COMMISSIONER STR","5","Shoprite","SR","Gauteng Division","6","FALSE","FALSE","TRUE","FALSE"
"48","262","CH OVAL (LADYSMITH)","1","Checkers","CH","Natal Division","3","FALSE","FALSE","TRUE","FALSE"
"50","6640","SR VRYHEID","5","Shoprite","SR","Natal Division","3","FALSE","FALSE","FALSE","FALSE"
"781","42216","SR NEWCASTLE","5","Shoprite","SR","Natal Division","3","FALSE","FALSE","FALSE","FALSE"
"902","48856","SR NQUTHU","5","Shoprite","SR","Natal Division","3","FALSE","FALSE","FALSE","FALSE"
"81","6616","SR SYMONS STREET","5","Shoprite","SR","Natal Division","3","FALSE","FALSE","FALSE","FALSE"
"970","48864","SR RAISETHORPE","5","Shoprite","SR","Natal Division","3","FALSE","FALSE","FALSE","FALSE"
"57","2175","CH WESTVILLE","1","Checkers","CH","Natal Division","3","FALSE","FALSE","FALSE","FALSE"
"60","1616","CH EMPANGENI","1","Checkers","CH","Natal Division","3","FALSE","FALSE","TRUE","FALSE"
"85","6713","CH MARGATE","1","Checkers","CH","Natal Division","3","FALSE","FALSE","FALSE","FALSE"
"86","6739","SR PORT SHEPSTONE","5","Shoprite","SR","Natal Division","3","FALSE","FALSE","FALSE","FALSE"
"87","6755","CH SCOTTBURGH","1","Checkers","CH","Natal Division","3","FALSE","FALSE","FALSE","FALSE"
"844","42698","CH SHELLEY BEACH","1","Checkers","CH","Natal Division","3","FALSE","FALSE","TRUE","FALSE"
"989","55322","SR BIZANA","5","Shoprite","SR","Natal Division","3","FALSE","FALSE","FALSE","FALSE"
"69","6666","SR ESHOWE","5","Shoprite","SR","Natal Division","3","FALSE","FALSE","FALSE","FALSE"
"371","8016","SR VERULAM","5","Shoprite","SR","Natal Division","3","FALSE","FALSE","FALSE","FALSE"
"71","351","SR NEWLANDS CITY","5","Shoprite","SR","Natal Division","3","FALSE","FALSE","FALSE","FALSE"
"70","6674","SR KWA MASHU","5","Shoprite","SR","Natal Division","3","FALSE","FALSE","FALSE","FALSE"
"405","8456","SR BRITTANNIA","5","Shoprite","SR","Natal Division","3","FALSE","FALSE","FALSE","FALSE"
"841","48238","CH HY SHALLCROSS","9","Checkers Hyper","CA","Natal Division","3","FALSE","FALSE","FALSE","FALSE"
"977","54677","CH HY GALLERIA","9","Checkers Hyper","CA","Natal Division","3","FALSE","FALSE","FALSE","FALSE"
"83","6690","SR AMANZIMTOTI","5","Shoprite","SR","Natal Division","3","FALSE","FALSE","FALSE","FALSE"
"358","2735","SR WORCESTER","5","Shoprite","SR","Western Cape Division","2","FALSE","FALSE","TRUE","FALSE"
"305","1789","SR EERSTE RIVER","5","Shoprite","SR","Western Cape Division","2","FALSE","FALSE","TRUE","FALSE"
"446","40549","SR DUBE","5","Shoprite","SR","Gauteng Division","6","FALSE","FALSE","FALSE","FALSE"
"206","416","SR ELDORADO PARK","5","Shoprite","SR","Gauteng Division","6","FALSE","FALSE","TRUE","FALSE"
"893","48547","SR EVATON PLAZA","5","Shoprite","SR","Gauteng Division","6","FALSE","FALSE","FALSE","FALSE"
"249","1098","SR HEIDELBERG","5","Shoprite","SR","Gauteng Division","6","FALSE","FALSE","TRUE","FALSE"
"201","717","SR HILLBROW","5","Shoprite","SR","Gauteng Division","6","FALSE","FALSE","FALSE","FALSE"
"890","48539","SR JABULANI","5","Shoprite","SR","Gauteng Division","6","FALSE","FALSE","FALSE","FALSE"
"221","660","SR KAGISO","5","Shoprite","SR","Gauteng Division","6","FALSE","FALSE","FALSE","FALSE"
"847","47614","SR KATLEHONG","5","Shoprite","SR","Gauteng Division","6","FALSE","FALSE","FALSE","FALSE"
"266","1268","SR KRIEL","5","Shoprite","SR","Gauteng Division","6","FALSE","FALSE","TRUE","FALSE"
"222","1080","SR NEWLANDS","5","Shoprite","SR","Gauteng Division","6","FALSE","FALSE","TRUE","FALSE"
"251","1462","SR NIGEL","5","Shoprite","SR","Gauteng Division","6","FALSE","FALSE","TRUE","FALSE"
"923","52023","SR NORTHCLIFF","5","Shoprite","SR","Gauteng Division","6","FALSE","FALSE","TRUE","FALSE"
"253","7272","SR SPRINGS","5","Shoprite","SR","Gauteng Division","6","FALSE","FALSE","TRUE","FALSE"
"804","44438","SR TOKOZA 2","5","Shoprite","SR","Gauteng Division","6","FALSE","FALSE","FALSE","FALSE"
"259","7426","SR WESTONARIA TOWN","5","Shoprite","SR","Gauteng Division","6","FALSE","FALSE","TRUE","FALSE"
"1035","31479","SR ATTERIDGEVILLE STADIUM","5","Shoprite","SR","Northern Division","4","FALSE","FALSE","FALSE","FALSE"
"934","51247","SR HEIDEDAL","5","Shoprite","SR","Northern Cape and O.F.S Division","5","FALSE","FALSE","TRUE","FALSE"
"171","6925","CH UPINGTON","1","Checkers","CH","Northern Cape and O.F.S Division","5","FALSE","FALSE","TRUE","FALSE"
"955","55487","SR KROONSTAD","5","Shoprite","SR","Northern Cape and O.F.S Division","5","FALSE","FALSE","TRUE","FALSE"
"945","48393","SR THABONG","5","Shoprite","SR","Northern Cape and O.F.S Division","5","FALSE","FALSE","FALSE","FALSE"
"818","44933","SR NELSPRUIT BROWN STREET","5","Shoprite","SR","Northern Division","4","FALSE","FALSE","FALSE","FALSE"
"946","53922","SR NYLSTROOM","5","Shoprite","SR","Northern Division","4","FALSE","FALSE","FALSE","FALSE"
"255","7387","SR ORKNEY","5","Shoprite","SR","Northern Division","4","FALSE","FALSE","TRUE","FALSE"
"148","2468","SR PHALABORWA","5","Shoprite","SR","Northern Division","4","FALSE","FALSE","FALSE","FALSE"
"972","52714","SR PHANGAMI MALL","5","Shoprite","SR","Northern Division","4","FALSE","FALSE","TRUE","FALSE"
"143","7086","SR POTGIETERSRUS","5","Shoprite","SR","Northern Division","4","FALSE","FALSE","TRUE","FALSE"
"115","490","SR QUEENSWOOD","5","Shoprite","SR","Northern Division","4","FALSE","FALSE","TRUE","FALSE"
"125","7141","SR RUSTENBURG","5","Shoprite","SR","Northern Division","4","FALSE","FALSE","TRUE","FALSE"
"126","1195","SR RUSTENBURG","5","Shoprite","SR","Northern Division","4","FALSE","FALSE","TRUE","FALSE"
"158","7078","SR SCHOEMANSTREET","5","Shoprite","SR","Northern Division","4","FALSE","FALSE","FALSE","FALSE"
"149","1357","SR SIBASA","5","Shoprite","SR","Northern Division","4","FALSE","FALSE","FALSE","FALSE"
"116","181","SR SILVERTON","5","Shoprite","SR","Northern Division","4","FALSE","FALSE","TRUE","FALSE"
"440","40638","SR SS ANNAN DRIVE","2","Super Store","SS","Northern Division","4","FALSE","FALSE","FALSE","FALSE"
"788","42339","SR SS MKHULU PLAZA","2","Super Store","SS","Northern Division","4","FALSE","FALSE","FALSE","FALSE"
"145","2395","SR THABAZIMBI","5","Shoprite","SR","Northern Division","4","FALSE","FALSE","TRUE","FALSE"
"1230","94394","LS FLORIDA","17","LiquorShop Shoprite","LS","Gauteng Division","6","FALSE","FALSE","FALSE","FALSE"
"150","7214","SR THOHOYANDOU","5","Shoprite","SR","Northern Division","4","FALSE","FALSE","TRUE","FALSE"
"151","1828","SR TZANEEN","5","Shoprite","SR","Northern Division","4","FALSE","FALSE","TRUE","FALSE"
"996","55144","SR CHRIS HANI CROSSING","5","Shoprite","SR","Gauteng Division","6","FALSE","FALSE","FALSE","FALSE"
"113","7010","SR VAN DER WALT STREET","5","Shoprite","SR","Northern Division","4","FALSE","FALSE","FALSE","FALSE"
"146","2264","SR WARMBATHS","5","Shoprite","SR","Northern Division","4","FALSE","FALSE","TRUE","FALSE"
"140","254","SR WITBANK","5","Shoprite","SR","Northern Division","4","FALSE","FALSE","TRUE","FALSE"
"940","53087","SR PHUMALANI MALL","5","Shoprite","SR","Gauteng Division","6","FALSE","FALSE","FALSE","FALSE"
"203","466","SR MALVERN","5","Shoprite","SR","Gauteng Division","6","FALSE","FALSE","TRUE","FALSE"
"776","41757","SR SS BURGERSFORT","2","Super Store","SS","Northern Division","4","FALSE","FALSE","TRUE","FALSE"
"61","335","SR PHOENIX","5","Shoprite","SR","Natal Division","3","FALSE","FALSE","FALSE","FALSE"
"219","165","SR DOBSONVILLE","5","Shoprite","SR","Gauteng Division","6","FALSE","FALSE","FALSE","FALSE"
"767","41367","SR PIMVILLE","5","Shoprite","SR","Gauteng Division","6","FALSE","FALSE","FALSE","FALSE"
"813","44721","SR PROTEA GARDENS","5","Shoprite","SR","Gauteng Division","6","FALSE","FALSE","FALSE","FALSE"
"993","58118","CH BRACKEN GARDENS","1","Checkers","CH","Checkers GN Division","20","FALSE","FALSE","TRUE","FALSE"
"233","6103","CH WILROGATE","1","Checkers","CH","Checkers GN Division","20","FALSE","FALSE","TRUE","FALSE"
"232","2557","CH WESTGATE","1","Checkers","CH","Checkers GN Division","20","FALSE","FALSE","TRUE","FALSE"
"95","1852","CH BROOKLYN","1","Checkers","CH","Checkers GN Division","20","FALSE","FALSE","TRUE","FALSE"
"975","55089","CH BARTLETT","1","Checkers","CH","Checkers GN Division","20","FALSE","FALSE","TRUE","FALSE"
"950","50526","CH LYDENBURG","1","Checkers","CH","Checkers GN Division","20","FALSE","FALSE","TRUE","FALSE"
"994","58231","SR SOUTHGATE VALUE MALL","5","Shoprite","SR","Gauteng Division","6","FALSE","FALSE","TRUE","FALSE"
"267","539","SR SS SECUNDA","2","Super Store","SS","Gauteng Division","6","FALSE","FALSE","TRUE","FALSE"
"269","7361","SR STANDERTON","5","Shoprite","SR","Gauteng Division","6","FALSE","FALSE","TRUE","FALSE"
"260","1967","SR WESTONARIA","5","Shoprite","SR","Gauteng Division","6","FALSE","FALSE","TRUE","FALSE"
"760","40971","SR ZOLA","5","Shoprite","SR","Gauteng Division","6","FALSE","FALSE","FALSE","FALSE"
"234","2484","SR ALBERTON","5","Shoprite","SR","Gauteng Division","6","FALSE","FALSE","TRUE","FALSE"
"430","7646","CH HY WESTGATE","9","Checkers Hyper","CA","Checkers GN Division","20","FALSE","FALSE","FALSE","FALSE"
"99","301","CH HY MONTANA","9","Checkers Hyper","CA","Checkers GN Division","20","FALSE","FALSE","TRUE","FALSE"
"1026","30326","CH HY MALL OF CARNIVAL","9","Checkers Hyper","CA","Checkers GN Division","20","FALSE","FALSE","TRUE","FALSE"
"258","7688","SR MANZINI","5","Shoprite","SR","Swaziland Division","19","FALSE","FALSE","FALSE","FALSE"
"925","52057","SR MALKERNS","5","Shoprite","SR","Swaziland Division","19","FALSE","FALSE","FALSE","FALSE"
"131","2905","SR MAPUTO","5","Shoprite","SR","Mozambique Division","16","FALSE","FALSE","FALSE","FALSE"
"952","55372","CH ACADEMIA","1","Checkers","CH","Namibia Division","8","FALSE","FALSE","TRUE","FALSE"
"992","55071","CH BRAM FISCHER","1","Checkers","CH","Checkers GN Division","20","FALSE","FALSE","TRUE","FALSE"
"773","42185","CH KLEIN WINDHOEK","1","Checkers","CH","Namibia Division","8","FALSE","FALSE","TRUE","FALSE"
"956","55380","SR KATIMA MULILO","5","Shoprite","SR","Namibia Division","8","FALSE","FALSE","TRUE","FALSE"
"1232","38976","LS PARYS","17","LiquorShop Shoprite","LS","Northern Cape and O.F.S Division","5","FALSE","FALSE","FALSE","FALSE"
"872","48505","SR ONGWEDIVA ","5","Shoprite","SR","Namibia Division","8","FALSE","FALSE","TRUE","FALSE"
"408","8121","SR OSHAKATI","5","Shoprite","SR","Namibia Division","8","FALSE","FALSE","TRUE","FALSE"
"409","8951","SR OTJIRONGO","5","Shoprite","SR","Namibia Division","8","FALSE","FALSE","TRUE","FALSE"
"40","6357","SR OUDTSHOORN","5","Shoprite","SR","Eastern Cape Division","1","FALSE","FALSE","TRUE","FALSE"
"407","8155","SR ONDANGWA","5","Shoprite","SR","Namibia Division","8","FALSE","FALSE","TRUE","FALSE"
"935","53079","SR RUNDU","5","Shoprite","SR","Namibia Division","8","FALSE","FALSE","TRUE","FALSE"
"449","40191","SR BLANTYRE","5","Shoprite","SR","Malawi","21","FALSE","FALSE","FALSE","FALSE"
"450","5351","SR LILONGWE","5","Shoprite","SR","Malawi","21","FALSE","FALSE","FALSE","FALSE"
"869","46082","SR LERIBE","5","Shoprite","SR","Lesotho Divsion","17","FALSE","FALSE","FALSE","FALSE"
"842","45028","CH EMFULENI","1","Checkers","CH","Checkers GN Division","20","FALSE","FALSE","TRUE","FALSE"
"228","2515","CH GLENVISTA","1","Checkers","CH","Checkers GN Division","20","FALSE","FALSE","FALSE","FALSE"
"976","55005","CH SP PAVILLION","1","Checkers","CH","Checkers GN Division","20","FALSE","FALSE","TRUE","FALSE"
"229","1713","CH MONUMENTPARK","1","Checkers","CH","Checkers GN Division","20","FALSE","FALSE","TRUE","FALSE"
"995","59180","CH NOORDHEUWEL","1","Checkers","CH","Checkers GN Division","20","FALSE","FALSE","TRUE","FALSE"
"926","50518","CH POTCHEFSTROOM ","1","Checkers","CH","Checkers GN Division","20","FALSE","FALSE","TRUE","FALSE"
"836","45036","CH RIVERSIDE MALL","1","Checkers","CH","Checkers GN Division","20","FALSE","FALSE","TRUE","FALSE"
"837","45044","CH SAVEWAY (WITBANK)","1","Checkers","CH","Checkers GN Division","20","FALSE","FALSE","TRUE","FALSE"
"1004","58126","CH BARDENE","1","Checkers","CH","Checkers GN Division","20","FALSE","FALSE","TRUE","FALSE"
"981","52316","CH SELCOURT","1","Checkers","CH","Checkers GN Division","20","FALSE","FALSE","TRUE","FALSE"
"277","6111","CH NORTHMEAD SQUARE","1","Checkers","CH","Checkers GN Division","20","FALSE","FALSE","TRUE","FALSE"
"272","7476","SR GOLDEN WALK","5","Shoprite","SR","Gauteng Division","6","FALSE","FALSE","TRUE","FALSE"
"431","6501","CH HY N1 CITY","9","Checkers Hyper","CA","Western Cape Division","2","FALSE","FALSE","TRUE","FALSE"
"192","6959","SR HARRISMITH","5","Shoprite","SR","Northern Cape and O.F.S Division","5","FALSE","FALSE","TRUE","FALSE"
"432","6446","CH HY PAROW","9","Checkers Hyper","CA","Western Cape Division","2","FALSE","FALSE","TRUE","FALSE"
"846","1640","SR MANGUANG","5","Shoprite","SR","Northern Cape and O.F.S Division","5","FALSE","FALSE","FALSE","FALSE"
"876","46074","SR BOTSHABELO","5","Shoprite","SR","Northern Cape and O.F.S Division","5","FALSE","FALSE","FALSE","FALSE"
"900","46090","SR BARKLEY ROAD","5","Shoprite","SR","Northern Cape and O.F.S Division","5","FALSE","FALSE","TRUE","FALSE"
"974","55160","CH DE GRENDEL","1","Checkers","CH","Western Cape Division","2","FALSE","FALSE","TRUE","FALSE"
"829","44797","SR WOLMARANSSTAD","5","Shoprite","SR","Northern Cape and O.F.S Division","5","FALSE","FALSE","TRUE","FALSE"
"181","115","SR VRYBURG","5","Shoprite","SR","Northern Cape and O.F.S Division","5","FALSE","FALSE","TRUE","FALSE"
"951","55518","SR GANYESA","5","Shoprite","SR","Northern Cape and O.F.S Division","5","FALSE","FALSE","TRUE","FALSE"
"194","903","CH KROONSTAD","1","Checkers","CH","Northern Cape and O.F.S Division","5","FALSE","FALSE","TRUE","FALSE"
"198","1666","CH SASOLBURG","1","Checkers","CH","Northern Cape and O.F.S Division","5","FALSE","FALSE","TRUE","FALSE"
"186","6844","SR WELKOM","5","Shoprite","SR","Northern Cape and O.F.S Division","5","FALSE","FALSE","TRUE","FALSE"
"1003","59009","CH WELGELEÃ« PLEIN","1","Checkers","CH","Western Cape Division","2","FALSE","FALSE","TRUE","FALSE"
"212","2549","CH BALFOUR PARK","1","Checkers","CH","Checkers GN Division","20","FALSE","TRUE","TRUE","FALSE"
"213","1941","CH BRYANSTON","1","Checkers","CH","Checkers GN Division","20","FALSE","FALSE","TRUE","FALSE"
"215","2086","CH EMMARENTIA","1","Checkers","CH","Checkers GN Division","20","FALSE","FALSE","TRUE","FALSE"
"943","48822","CH GLEN MARAIS","1","Checkers","CH","Checkers GN Division","20","FALSE","FALSE","TRUE","FALSE"
"104","7175","CH GEZINA","1","Checkers","CH","Checkers GN Division","20","FALSE","FALSE","TRUE","FALSE"
"938","52201","CH HARTBEESPOORT","1","Checkers","CH","Checkers GN Division","20","FALSE","FALSE","TRUE","FALSE"
"119","945","CH SUNNYPARK","1","Checkers","CH","Checkers GN Division","20","FALSE","FALSE","FALSE","FALSE"
"987","55013","CH CENTURION LIFESTYLE","1","Checkers","CH","Checkers GN Division","20","FALSE","FALSE","TRUE","FALSE"
"833","46561","CH ECO BOULEVARD","1","Checkers","CH","Checkers GN Division","20","FALSE","FALSE","TRUE","FALSE"
"839","40989","CH JEAN AVENUE","1","Checkers","CH","Checkers GN Division","20","FALSE","FALSE","TRUE","FALSE"
"100","521","CH MORELETA PARK","1","Checkers","CH","Checkers GN Division","20","FALSE","FALSE","TRUE","FALSE"
"1038","30350","CH PARKVIEW","1","Checkers","CH","Checkers GN Division","20","FALSE","FALSE","TRUE","FALSE"
"879","48301","CH MORELETTA VILLAGE ","1","Checkers","CH","Checkers GN Division","20","FALSE","FALSE","TRUE","FALSE"
"207","1674","SR ENNERDALE","5","Shoprite","SR","Gauteng Division","6","FALSE","FALSE","TRUE","FALSE"
"1014","57861","CH MALL OF THE NORTH","1","Checkers","CH","Checkers GN Division","20","FALSE","FALSE","TRUE","FALSE"
"144","1030","CH MOKOPANE","1","Checkers","CH","Checkers GN Division","20","FALSE","FALSE","TRUE","FALSE"
"157","2214","CH POLOKWANE","1","Checkers","CH","Checkers GN Division","20","FALSE","FALSE","TRUE","FALSE"
"454","40947","SR NALEDI","5","Shoprite","SR","Gauteng Division","6","FALSE","FALSE","FALSE","FALSE"
"264","7345","SR ERMELO","5","Shoprite","SR","Gauteng Division","6","FALSE","FALSE","TRUE","FALSE"
"1006","58029","CH LOUIS TRICHARDT","1","Checkers","CH","Checkers GN Division","20","FALSE","FALSE","TRUE","FALSE"
"947","53689","SR STANFORD SQUARE","5","Shoprite","SR","Eastern Cape Division","1","FALSE","FALSE","TRUE","FALSE"
"147","7206","CH PHALABORWA","1","Checkers","CH","Checkers GN Division","20","FALSE","FALSE","TRUE","FALSE"
"1032","31568","CH TZANEEN LIFESTYLE","1","Checkers","CH","Checkers GN Division","20","FALSE","FALSE","TRUE","FALSE"
"265","1072","SR EVANDER","5","Shoprite","SR","Gauteng Division","6","FALSE","FALSE","TRUE","FALSE"
"226","7581","CH CRESTA","1","Checkers","CH","Checkers GN Division","20","FALSE","FALSE","TRUE","FALSE"
"1031","32679","SR ELLIOT SP","5","Shoprite","SR","Eastern Cape Division","1","FALSE","FALSE","TRUE","FALSE"
"991","55063","CH NORTHCLIFF CORNER","1","Checkers","CH","Checkers GN Division","20","FALSE","FALSE","TRUE","FALSE"
"15","1250","SR BETHELSDORP","5","Shoprite","SR","Eastern Cape Division","1","FALSE","FALSE","TRUE","FALSE"
"886","48319","CH NORTHRIDING","1","Checkers","CH","Checkers GN Division","20","FALSE","FALSE","TRUE","FALSE"
"1018","59774","CH ROCK COTTAGE","1","Checkers","CH","Checkers GN Division","20","FALSE","FALSE","TRUE","FALSE"
"279","1925","CH HY ARCON PARK","9","Checkers Hyper","CA","Checkers GN Division","20","FALSE","FALSE","FALSE","FALSE"
"283","2303","CH HY KLERKSDORP","9","Checkers Hyper","CA","Checkers GN Division","20","FALSE","FALSE","FALSE","FALSE"
"428","7620","CH HY ROODEPOORT","9","Checkers Hyper","CA","Checkers GN Division","20","FALSE","FALSE","FALSE","FALSE"
"418","7159","CH HY CENTURION","9","Checkers Hyper","CA","Checkers GN Division","20","FALSE","FALSE","FALSE","FALSE"
"1233","37158","SR GREYTOWN","5","Shoprite","SR","Natal Division","3","FALSE","FALSE","FALSE","FALSE"
"910","51019","SR DIEPSLOOT","5","Shoprite","SR","Gauteng Division","6","FALSE","FALSE","FALSE","FALSE"
"835","45052","SR ALEXANDRA","5","Shoprite","SR","Gauteng Division","6","FALSE","FALSE","FALSE","FALSE"
"419","7743","CH HY MAYVILLE","9","Checkers Hyper","CA","Checkers GN Division","20","FALSE","FALSE","FALSE","FALSE"
"423","7450","CH HY BOKSBURG ","9","Checkers Hyper","CA","Checkers GN Division","20","FALSE","FALSE","FALSE","FALSE"
"284","1721","CH HY KLIPFONTEIN","9","Checkers Hyper","CA","Checkers GN Division","20","FALSE","FALSE","FALSE","FALSE"
"427","7654","CH HY KEMPTON PARK","9","Checkers Hyper","CA","Checkers GN Division","20","FALSE","FALSE","FALSE","FALSE"
"238","1802","SR THREE RIVERS","5","Shoprite","SR","Gauteng Division","6","FALSE","FALSE","TRUE","FALSE"
"6","1810","CH SIXTH AVENUE","1","Checkers","CH","Eastern Cape Division","1","FALSE","FALSE","TRUE","FALSE"
"766","41074","CH JEFFREYSBAY","1","Checkers","CH","Eastern Cape Division","1","FALSE","FALSE","TRUE","FALSE"
"3","6268","CH GREENACRES","1","Checkers","CH","Eastern Cape Division","1","FALSE","FALSE","TRUE","FALSE"
"805","44739","CH NEWTON PARK","1","Checkers","CH","Eastern Cape Division","1","FALSE","FALSE","TRUE","FALSE"
"949","52358","CH WEST COAST MALL","1","Checkers","CH","Western Cape Division","2","FALSE","FALSE","TRUE","FALSE"
"939","52073","CH JEFFREYSBAY ","1","Checkers","CH","Eastern Cape Division","1","FALSE","FALSE","TRUE","FALSE"
"24","2298","SR MDANTSANE","5","Shoprite","SR","Eastern Cape Division","1","FALSE","FALSE","FALSE","FALSE"
"964","55152","SR VAALGATE","5","Shoprite","SR","Gauteng Division","6","FALSE","FALSE","TRUE","FALSE"
"224","1323","SR RANDFONTEIN","5","Shoprite","SR","Gauteng Division","6","FALSE","FALSE","TRUE","FALSE"
"1009","58689","CH HERMANUS","1","Checkers","CH","Western Cape Division","2","FALSE","FALSE","TRUE","FALSE"
"784","42347","SR KNYSNA","5","Shoprite","SR","Eastern Cape Division","1","FALSE","FALSE","FALSE","FALSE"
"920","48979","CH KNYSNA ","1","Checkers","CH","Eastern Cape Division","1","FALSE","FALSE","TRUE","FALSE"
"978","57073","CH YORKSTREET","1","Checkers","CH","Eastern Cape Division","1","FALSE","FALSE","TRUE","FALSE"
"32","6331","CH HEIDERAND","1","Checkers","CH","Eastern Cape Division","1","FALSE","FALSE","TRUE","FALSE"
"37","6315","SR BEAUFORT WEST","5","Shoprite","SR","Eastern Cape Division","1","FALSE","FALSE","TRUE","FALSE"
"350","806","SR CERES","5","Shoprite","SR","Western Cape Division","2","FALSE","FALSE","TRUE","FALSE"
"854","46252","SR HUGENOT PAARL","5","Shoprite","SR","Western Cape Division","2","FALSE","FALSE","TRUE","FALSE"
"353","270","SR PAARL","5","Shoprite","SR","Western Cape Division","2","FALSE","FALSE","TRUE","FALSE"
"807","44959","SR ROBERTSON","5","Shoprite","SR","Western Cape Division","2","FALSE","FALSE","TRUE","FALSE"
"45","1983","SR MADADENI","5","Shoprite","SR","Natal Division","3","FALSE","FALSE","FALSE","FALSE"
"43","6585","SR LADYSMITH","5","Shoprite","SR","Natal Division","3","FALSE","FALSE","FALSE","FALSE"
"794","42672","CH NEWCASTLE","1","Checkers","CH","Natal Division","3","FALSE","FALSE","TRUE","FALSE"
"922","50550","CH VRYHEID","1","Checkers","CH","Natal Division","3","FALSE","FALSE","TRUE","FALSE"
"372","1153","SR ESTCOURT","5","Shoprite","SR","Natal Division","3","FALSE","FALSE","FALSE","FALSE"
"53","6797","SR PINETOWN","5","Shoprite","SR","Natal Division","3","FALSE","FALSE","FALSE","FALSE"
"231","7298","CH SOUTHGATE","1","Checkers","CH","Checkers GN Division","20","FALSE","FALSE","FALSE","FALSE"
"360","1886","CH WINDERMERE ROAD","1","Checkers","CH","Natal Division","3","FALSE","FALSE","FALSE","FALSE"
"56","2028","CH ST JOHNS","1","Checkers","CH","Natal Division","3","FALSE","FALSE","FALSE","FALSE"
"906","42703","CH HILLCREST","1","Checkers","CH","Natal Division","3","FALSE","FALSE","FALSE","FALSE"
"768","41066","SR MTUBA-TUBA","5","Shoprite","SR","Natal Division","3","FALSE","FALSE","FALSE","FALSE"
"932","51271","SR NONGOMA","5","Shoprite","SR","Natal Division","3","FALSE","FALSE","FALSE","FALSE"
"230","7638","SR ROODEPOORT","5","Shoprite","SR","Gauteng Division","6","FALSE","FALSE","FALSE","FALSE"
"907","48872","SR RANDFONTEIN STATION","5","Shoprite","SR","Gauteng Division","6","FALSE","FALSE","TRUE","FALSE"
"200","7515","SR SS ELOFF STREET","2","Super Store","SS","Gauteng Division","6","FALSE","FALSE","FALSE","FALSE"
"860","46197","SR ATHLONE","5","Shoprite","SR","Western Cape Division","2","TRUE","FALSE","TRUE","FALSE"
"787","41935","SR GATESVILLE","5","Shoprite","SR","Western Cape Division","2","TRUE","FALSE","TRUE","FALSE"
"858","46202","SR HANOVER PARK","5","Shoprite","SR","Western Cape Division","2","TRUE","FALSE","TRUE","FALSE"
"404","6381","SR CLAREMONT","5","Shoprite","SR","Western Cape Division","2","FALSE","FALSE","TRUE","FALSE"
"298","589","SR FISH HOEK","5","Shoprite","SR","Western Cape Division","2","FALSE","FALSE","TRUE","FALSE"
"348","1593","SR WOODSTOCK","5","Shoprite","SR","Western Cape Division","2","FALSE","FALSE","TRUE","FALSE"
"958","54944","SR EBONY PARK","5","Shoprite","SR","Gauteng Division","6","FALSE","FALSE","FALSE","FALSE"
"913","50869","SR BELHAR","5","Shoprite","SR","Western Cape Division","2","FALSE","FALSE","TRUE","FALSE"
"851","46278","SR GOODWOOD","5","Shoprite","SR","Western Cape Division","2","FALSE","FALSE","TRUE","FALSE"
"855","46236","SR HALT ROAD","5","Shoprite","SR","Western Cape Division","2","FALSE","FALSE","TRUE","FALSE"
"315","6438","SR MIDDESTAD","5","Shoprite","SR","Western Cape Division","2","FALSE","FALSE","TRUE","FALSE"
"883","42436","SR MOLOPOLOLE","5","Shoprite","SR","Botswana Division","18","FALSE","FALSE","FALSE","FALSE"
"452","40418","SR GOBABIS","5","Shoprite","SR","Namibia Division","8","FALSE","FALSE","TRUE","FALSE"
"980","48848","CH BALLITO","1","Checkers","CH","Natal Division","3","FALSE","FALSE","TRUE","FALSE"
"359","1836","SR WEST STREET","5","Shoprite","SR","Natal Division","3","FALSE","FALSE","FALSE","FALSE"
"803","42533","SR ATLANTIS 2","5","Shoprite","SR","Western Cape Division","2","FALSE","FALSE","TRUE","FALSE"
"322","880","SR SPRINGBOK","5","Shoprite","SR","Western Cape Division","2","FALSE","FALSE","TRUE","FALSE"
"339","1991","SR VREDENBURG","5","Shoprite","SR","Western Cape Division","2","FALSE","FALSE","TRUE","FALSE"
"107","2777","SR BRICKHILL ROAD","5","Shoprite","SR","Natal Division","3","FALSE","FALSE","TRUE","FALSE"
"189","2612","SR BETHLEHEM","5","Shoprite","SR","Northern Cape and O.F.S Division","5","FALSE","FALSE","TRUE","FALSE"
"193","6941","SR LADYBRAND","5","Shoprite","SR","Northern Cape and O.F.S Division","5","FALSE","FALSE","TRUE","FALSE"
"190","327","SR FICKSBURG","5","Shoprite","SR","Northern Cape and O.F.S Division","5","FALSE","FALSE","TRUE","FALSE"
"162","1909","CH BFN WESTDENE","1","Checkers","CH","Northern Cape and O.F.S Division","5","FALSE","FALSE","TRUE","FALSE"
"822","43660","CH LANGENHOVENPARK","1","Checkers","CH","Northern Cape and O.F.S Division","5","FALSE","FALSE","TRUE","FALSE"
"196","41749","SR PARYS","5","Shoprite","SR","Northern Cape and O.F.S Division","5","FALSE","FALSE","TRUE","FALSE"
"245","830","SR PRIMROSE","5","Shoprite","SR","Gauteng Division","6","FALSE","FALSE","TRUE","FALSE"
"392","1585","SR VALHALLA","5","Shoprite","SR","Northern Division","4","FALSE","FALSE","TRUE","FALSE"
"129","2159","SR BARBERTON","5","Shoprite","SR","Northern Division","4","FALSE","FALSE","TRUE","FALSE"
"391","7052","SR WHITE RIVER","5","Shoprite","SR","Northern Division","4","FALSE","FALSE","TRUE","FALSE"
"447","40214","SR SETSING","5","Shoprite","SR","Northern Cape and O.F.S Division","5","FALSE","FALSE","FALSE","FALSE"
"455","40955","SR VENDA","5","Shoprite","SR","Northern Division","4","FALSE","FALSE","TRUE","FALSE"
"1234","83133","SR NAMIBE","5","Shoprite","SR","Angola","26","FALSE","FALSE","FALSE","FALSE"
"30","1551","SR GEORGE","5","Shoprite","SR","Eastern Cape Division","1","FALSE","FALSE","TRUE","FALSE"
"999","58168","CH BRITS MALL","1","Checkers","CH","Checkers GN Division","20","FALSE","FALSE","TRUE","FALSE"
"792","42541","CH SUNNINGHILL","1","Checkers","CH","Checkers GN Division","20","FALSE","FALSE","TRUE","FALSE"
"905","49080","CH MTHATHU","1","Checkers","CH","Eastern Cape Division","1","FALSE","FALSE","FALSE","FALSE"
"1020","30033","CH KIMBERLEY NEW PARK GAME CENTRE","1","Checkers","CH","Northern Cape and O.F.S Division","5","FALSE","FALSE","TRUE","FALSE"
"410","84","SR SWAKOPMUND","5","Shoprite","SR","Namibia Division","8","FALSE","FALSE","TRUE","FALSE"
"888","49323","SR BUSRANK MANZINI","5","Shoprite","SR","Swaziland Division","19","FALSE","FALSE","FALSE","FALSE"
"51","1276","CH BLUFF","1","Checkers","CH","Natal Division","3","FALSE","FALSE","TRUE","FALSE"
"137","107","SR KWAGGAFONTEIN","5","Shoprite","SR","Northern Division","4","FALSE","FALSE","FALSE","FALSE"
"891","45086","SR MBEKWENI","5","Shoprite","SR","Western Cape Division","2","FALSE","FALSE","TRUE","FALSE"
"882","48296","CH COLUMBINE SQUARE","1","Checkers","CH","Checkers GN Division","20","FALSE","FALSE","FALSE","FALSE"
"393","7549","SR LEHRUTSHE","5","Shoprite","SR","Northern Division","4","FALSE","FALSE","FALSE","FALSE"
"772","41579","SR MAMELODIE","5","Shoprite","SR","Northern Division","4","FALSE","FALSE","FALSE","FALSE"
"1036","53257","SR DAVEYTON","5","Shoprite","SR","Gauteng Division","6","FALSE","FALSE","FALSE","FALSE"
"1030","30740","SR END STREET","5","Shoprite","SR","Gauteng Division","6","FALSE","FALSE","FALSE","FALSE"
"451","40719","CH HAZYVIEW","1","Checkers","CH","Checkers GN Division","20","FALSE","FALSE","TRUE","FALSE"
"411","1064","SR WALVISBAAI","5","Shoprite","SR","Namibia Division","8","FALSE","FALSE","TRUE","FALSE"
"911","8414","SR MATOLA ","5","Shoprite","SR","Mozambique Division","16","FALSE","FALSE","FALSE","FALSE"
"877","49056","SR MARIENTAL","5","Shoprite","SR","Namibia Division","8","FALSE","FALSE","TRUE","FALSE"
"400","6226","SR KING WILLIAMS TOWN","5","Shoprite","SR","Eastern Cape Division","1","FALSE","FALSE","TRUE","FALSE"
"160","6909","SR BFN MAITLANDSTR.","5","Shoprite","SR","Northern Cape and O.F.S Division","5","FALSE","FALSE","TRUE","FALSE"
"941","51221","SR MANDELA PARK","5","Shoprite","SR","Northern Cape and O.F.S Division","5","FALSE","FALSE","FALSE","FALSE"
"161","2133","SR BFN MIDDESTAD","5","Shoprite","SR","Northern Cape and O.F.S Division","5","FALSE","FALSE","TRUE","FALSE"
"903","49933","SR EMBALENHLE","5","Shoprite","SR","Gauteng Division","6","FALSE","FALSE","TRUE","FALSE"
"12","1187","SR MOTHERWELL","5","Shoprite","SR","Eastern Cape Division","1","FALSE","FALSE","FALSE","FALSE"
"870","48246","SR SEBOKENG PLAZA","5","Shoprite","SR","Gauteng Division","6","FALSE","FALSE","FALSE","FALSE"
"871","48220","SR NORTHAM","5","Shoprite","SR","Northern Division","4","FALSE","FALSE","TRUE","FALSE"
"442","40248","CH NORTHGATE","1","Checkers","CH","Checkers GN Division","20","FALSE","FALSE","TRUE","FALSE"
"413","6365","CH WINDHOEK","1","Checkers","CH","Namibia Division","8","FALSE","FALSE","TRUE","FALSE"
"412","42","SR WINDHOEK","5","Shoprite","SR","Namibia Division","8","FALSE","FALSE","FALSE","FALSE"
"127","1446","SR ZEERUST","5","Shoprite","SR","Northern Division","4","FALSE","FALSE","TRUE","FALSE"
"395","8024","CH BENONI LAKE","1","Checkers","CH","Checkers GN Division","20","FALSE","FALSE","TRUE","FALSE"
"406","929","SR KATURA","5","Shoprite","SR","Namibia Division","8","FALSE","FALSE","FALSE","FALSE"
"97","1771","CH LYNNWOOD","1","Checkers","CH","Checkers GN Division","20","FALSE","FALSE","TRUE","FALSE"
"962","52756","SR LOTUS GARDEN","5","Shoprite","SR","Northern Division","4","FALSE","FALSE","FALSE","FALSE"
"453","5212","CH MAURUA MALL","1","Checkers","CH","Namibia Division","8","FALSE","FALSE","TRUE","FALSE"
"843","47541","SR ORANGE FARM","5","Shoprite","SR","Gauteng Division","6","FALSE","FALSE","FALSE","FALSE"
"367","6014","SR ALIWAL NORTH","5","Shoprite","SR","Eastern Cape Division","1","FALSE","FALSE","TRUE","FALSE"
"130","2426","SR LYDENBURG","5","Shoprite","SR","Northern Division","4","FALSE","FALSE","TRUE","FALSE"
"966","54229","SR BRIDGE CITY","5","Shoprite","SR","Natal Division","3","FALSE","FALSE","FALSE","FALSE"
"928","51459","SR TSAKANE","5","Shoprite","SR","Gauteng Division","6","FALSE","FALSE","FALSE","FALSE"
"1016","58134","CH ALLENS NECK","1","Checkers","CH","Checkers GN Division","20","FALSE","FALSE","TRUE","FALSE"
"106","6705","SR BEREA ROAD","5","Shoprite","SR","Natal Division","3","FALSE","FALSE","TRUE","FALSE"
"831","42575","SR JANE FURSE","5","Shoprite","SR","Northern Division","4","FALSE","FALSE","FALSE","FALSE"
"840","45125","SR INANDA","5","Shoprite","SR","Natal Division","3","FALSE","FALSE","FALSE","FALSE"
"347","6527","SR VASCO","5","Shoprite","SR","Western Cape Division","2","FALSE","FALSE","TRUE","FALSE"
"335","199","SR SEA POINT","5","Shoprite","SR","Western Cape Division","2","FALSE","FALSE","TRUE","FALSE"
"291","1894","SR DURBANVILLE","5","Shoprite","SR","Western Cape Division","2","FALSE","FALSE","TRUE","FALSE"
"1066","33196","SR PROTEA GLEN","5","Shoprite","SR","Gauteng Division","6","FALSE","FALSE","FALSE","FALSE"
"76","2662","CH CASCADES","1","Checkers","CH","Natal Division","3","FALSE","FALSE","FALSE","FALSE"
"155","7191","SR LOUIS TRICHARDT","5","Shoprite","SR","Northern Division","4","FALSE","FALSE","TRUE","FALSE"
"319","50","SR CHARLESVILLE","5","Shoprite","SR","Western Cape Division","2","FALSE","FALSE","FALSE","FALSE"
"953","54596","CH HORIZON","1","Checkers","CH","Checkers GN Division","20","FALSE","FALSE","TRUE","FALSE"
"774","41723","SR CROSSROADS","5","Shoprite","SR","Northern Division","4","FALSE","FALSE","FALSE","FALSE"
"948","54148","CH GREENSTONE","1","Checkers","CH","Checkers GN Division","20","FALSE","FALSE","TRUE","FALSE"
"197","6967","SR SASOLBURG","5","Shoprite","SR","Northern Cape and O.F.S Division","5","FALSE","FALSE","TRUE","FALSE"
"830","46503","SR KEMPTON","5","Shoprite","SR","Gauteng Division","6","FALSE","FALSE","TRUE","FALSE"
"23","7751","SR GABARONE","5","Shoprite","SR","Botswana Division","18","FALSE","FALSE","FALSE","FALSE"
"252","2688","CH SPRINGS","1","Checkers","CH","Checkers GN Division","20","FALSE","FALSE","TRUE","FALSE"
"88","937","SR EAST LYNNE","5","Shoprite","SR","Northern Division","4","FALSE","FALSE","TRUE","FALSE"
"931","52065","SR BIG BEND","5","Shoprite","SR","Swaziland Division","19","FALSE","FALSE","FALSE","FALSE"
"779","42274","SR RYDERSTREET","5","Shoprite","SR","Natal Division","3","FALSE","FALSE","FALSE","FALSE"
"182","2311","CH VIRGINIA","1","Checkers","CH","Northern Cape and O.F.S Division","5","FALSE","FALSE","TRUE","FALSE"
"94","2002","SR TEMBA","5","Shoprite","SR","Northern Division","4","FALSE","FALSE","FALSE","FALSE"
"1060","63145","SR BOCHUM","5","Shoprite","SR","Northern Division","4","FALSE","FALSE","FALSE","FALSE"
"763","40963","SR KGALE HILL","5","Shoprite","SR","Botswana Division","18","FALSE","FALSE","FALSE","FALSE"
"112","7094","SR QUAGGA CENTRE","5","Shoprite","SR","Northern Division","4","FALSE","FALSE","TRUE","FALSE"
"225","1284","SR TRIOMF","5","Shoprite","SR","Gauteng Division","6","FALSE","FALSE","TRUE","FALSE"
"93","2337","SR PRETORIA NORTH","5","Shoprite","SR","Northern Division","4","FALSE","FALSE","TRUE","FALSE"
"91","7125","SR MABOPANE","5","Shoprite","SR","Northern Division","4","FALSE","FALSE","FALSE","FALSE"
"1058","30368","CH SILVER LAKES","1","Checkers","CH","Checkers GN Division","20","FALSE","FALSE","TRUE","FALSE"
"1061","36178","SR THEMBALETHU","5","Shoprite","SR","Eastern Cape Division","1","FALSE","FALSE","TRUE","FALSE"
"1063","32857","SR POSTMASBURG ","5","Shoprite","SR","Northern Cape and O.F.S Division","5","FALSE","FALSE","TRUE","FALSE"
"1065","32962","SR BURGERSFORT MALL","5","Shoprite","SR","Northern Division","4","FALSE","FALSE","FALSE","FALSE"
"1068","36194","SR BUTTERWORTH FINGOLAND MALL ","5","Shoprite","SR","Eastern Cape Division","1","FALSE","FALSE","FALSE","FALSE"
"1071","36160","SR STERKSPRUIT","5","Shoprite","SR","Eastern Cape Division","1","FALSE","FALSE","FALSE","FALSE"
"1074","36827","CH HARTSWATER","1","Checkers","CH","Northern Cape and O.F.S Division","5","FALSE","FALSE","TRUE","FALSE"
"1078","36500","SR GLEN RIDGE MALL","5","Shoprite","SR","Gauteng Division","6","FALSE","FALSE","FALSE","FALSE"
"1082","36526","CH LEPHALALE","1","Checkers","CH","Checkers GN Division","20","FALSE","FALSE","TRUE","FALSE"
"1083","50534","CHHY RUSTENBURG","9","Checkers Hyper","CA","Checkers GN Division","20","FALSE","FALSE","TRUE","FALSE"
"159","864","SR PIETERSBURG","5","Shoprite","SR","Northern Division","4","FALSE","FALSE","TRUE","FALSE"
"780","42208","SR MALAMULELE","5","Shoprite","SR","Northern Division","4","FALSE","FALSE","FALSE","FALSE"
"396","7612","SR RANDBURG","5","Shoprite","SR","Gauteng Division","6","FALSE","FALSE","TRUE","FALSE"
"441","40206","CH HY GATEWAY","9","Checkers Hyper","CA","Natal Division","3","FALSE","FALSE","FALSE","FALSE"
"300","369","CH MUIZENBERG","1","Checkers","CH","Western Cape Division","2","FALSE","FALSE","TRUE","FALSE"
"1072","37522","SR BAPONG","5","Shoprite","SR","Northern Division","4","FALSE","FALSE","FALSE","FALSE"
"1062","37718","SR TSOMO","5","Shoprite","SR","Eastern Cape Division","1","FALSE","FALSE","FALSE","FALSE"
"38","8058","SR MAUN","5","Shoprite","SR","Botswana Division","18","FALSE","FALSE","FALSE","FALSE"
"338","2599","CH TABLE VIEW","1","Checkers","CH","Western Cape Division","2","FALSE","FALSE","TRUE","FALSE"
"235","2492","CH BRACKENHURST","1","Checkers","CH","Checkers GN Division","20","FALSE","FALSE","TRUE","FALSE"
"915","51378","SR MFULENI","5","Shoprite","SR","Western Cape Division","2","FALSE","FALSE","TRUE","FALSE"
"963","54570","CH GREY OWL MIDSTREAM","1","Checkers","CH","Checkers GN Division","20","FALSE","FALSE","TRUE","FALSE"
"429","7329","CH HY SANDTON","9","Checkers Hyper","CA","Checkers GN Division","20","FALSE","FALSE","FALSE","FALSE"
"797","42656","SR TEMBISA","5","Shoprite","SR","Gauteng Division","6","FALSE","FALSE","TRUE","FALSE"
"204","7557","SR YEOVILLE","5","Shoprite","SR","Gauteng Division","6","FALSE","FALSE","TRUE","FALSE"
"210","408","SR ROSETTENVILLE","5","Shoprite","SR","Gauteng Division","6","FALSE","FALSE","FALSE","FALSE"
"971","52683","SR THORNTREE","5","Shoprite","SR","Northern Division","4","FALSE","FALSE","FALSE","FALSE"
"102","2769","SR WIERDA PARK","5","Shoprite","SR","Northern Division","4","FALSE","FALSE","TRUE","FALSE"
"120","7028","CH WAVERLEY","1","Checkers","CH","Checkers GN Division","20","FALSE","FALSE","TRUE","FALSE"
"133","2353","SR NELSPRUIT","5","Shoprite","SR","Northern Division","4","FALSE","FALSE","TRUE","FALSE"
"179","6860","SR MMABATHO","5","Shoprite","SR","Northern Cape and O.F.S Division","5","FALSE","FALSE","FALSE","FALSE"
"1028","31398","CH SAINTS","1","Checkers","CH","Northern Cape and O.F.S Division","5","FALSE","FALSE","TRUE","FALSE"
"896","49137","CH ERMELO ","1","Checkers","CH","Checkers GN Division","20","FALSE","FALSE","TRUE","FALSE"
"1079","36306","CH VIRGINIA CIRCLE","1","Checkers","CH","Natal Division","3","FALSE","FALSE","FALSE","FALSE"
"29","319","SR UMTATA","5","Shoprite","SR","Eastern Cape Division","1","FALSE","FALSE","FALSE","FALSE"
"282","2785","SR SS JAN SMUTS","2","Super Store","SS","Gauteng Division","6","FALSE","FALSE","TRUE","FALSE"
"968","50885","SR GUGULETHU","5","Shoprite","SR","Western Cape Division","2","FALSE","FALSE","TRUE","FALSE"
"912","45109","CH COBBLE WALK ","1","Checkers","CH","Western Cape Division","2","FALSE","FALSE","TRUE","FALSE"
"880","48385","CH WILLOW VILLAGE","1","Checkers","CH","Western Cape Division","2","FALSE","FALSE","TRUE","FALSE"
"92","7133","CH PRETORIA NORTH","1","Checkers","CH","Checkers GN Division","20","FALSE","FALSE","TRUE","FALSE"
"1108","38659","LC MAYVILLE","16","LiquorShop Checkers","LC","Checkers GN Division","20","FALSE","FALSE","FALSE","FALSE"
"1075","36584","LS BOCHUM","17","LiquorShop Shoprite","LS","Northern Division","4","FALSE","FALSE","FALSE","FALSE"
"1093","31851","LS ATTERIDGEVILLE STADIUM","17","LiquorShop Shoprite","LS","Northern Division","4","FALSE","FALSE","FALSE","FALSE"
"1067","36681","LC VAN DER LINGEN","16","LiquorShop Checkers","LC","Western Cape Division","2","FALSE","FALSE","FALSE","FALSE"
"808","44462","SR ENCOBO","5","Shoprite","SR","Eastern Cape Division","1","FALSE","FALSE","FALSE","FALSE"
"1085","52748","SR TONGA","5","Shoprite","SR","Northern Division","4","FALSE","FALSE","FALSE","FALSE"
"1059","37221","SR SIMUNYE CENTRE","5","Shoprite","SR","Natal Division","3","FALSE","FALSE","FALSE","FALSE"
"1096","32970","SR MARIKANA","5","Shoprite","SR","Northern Division","4","FALSE","FALSE","FALSE","FALSE"
"1095","31885","SR MAHWELERENG","5","Shoprite","SR","Northern Division","4","FALSE","FALSE","FALSE","FALSE"
"1099","55500","CH BETHLEHEM","1","Checkers","CH","Northern Cape and O.F.S Division","5","FALSE","FALSE","TRUE","FALSE"
"1097","37297","SR ELIM","5","Shoprite","SR","Northern Division","4","FALSE","FALSE","FALSE","FALSE"
"1103","32954","SR JANE FURSE CROSSING","5","Shoprite","SR","Northern Division","4","FALSE","FALSE","TRUE","FALSE"
"1101","36241","SR UMZIMKHULU","5","Shoprite","SR","Natal Division","3","FALSE","FALSE","FALSE","FALSE"
"1104","37823","SR STRUANDALE - KINAKO","5","Shoprite","SR","Eastern Cape Division","1","FALSE","FALSE","TRUE","FALSE"
"1107","37881","SR TUBATSE MALL","5","Shoprite","SR","Northern Division","4","FALSE","FALSE","TRUE","FALSE"
"1105","38332","SR GWASHAMBA MALL","5","Shoprite","SR","Namibia Division","8","FALSE","FALSE","TRUE","FALSE"
"288","2206","CH HY V D BIJLPARK","9","Checkers Hyper","CA","Checkers GN Division","20","FALSE","FALSE","FALSE","FALSE"
"1106","64044","SR GOLDEN HIGHWAY","5","Shoprite","SR","Gauteng Division","6","FALSE","FALSE","FALSE","FALSE"
"1109","33015","SR ZAM ZAM","5","Shoprite","SR","Swaziland Division","19","FALSE","FALSE","FALSE","FALSE"
"827","42559","CH LEAPING FROG","1","Checkers","CH","Checkers GN Division","20","FALSE","FALSE","TRUE","FALSE"
"1111","36495","SR OLIEVENHOUTBOSCH","5","Shoprite","SR","Gauteng Division","6","FALSE","FALSE","FALSE","FALSE"
"1114","39273","SR VERULAM HIGHWAY","5","Shoprite","SR","Natal Division","3","TRUE","FALSE","FALSE","FALSE"
"1115","64434","SR ACTONVILLE","5","Shoprite","SR","Gauteng Division","6","TRUE","FALSE","FALSE","FALSE"
"1064","53029","SR SIYABUSWA ","5","Shoprite","SR","Northern Division","4","FALSE","FALSE","FALSE","FALSE"
"103","7167","SR DASPOORT","5","Shoprite","SR","Northern Division","4","FALSE","FALSE","TRUE","FALSE"
"979","55534","SR JAN KEMPDORP","5","Shoprite","SR","Northern Cape and O.F.S Division","5","FALSE","FALSE","TRUE","FALSE"
"223","7400","CH RANDFONTEIN","1","Checkers","CH","Checkers GN Division","20","FALSE","FALSE","TRUE","FALSE"
"426","7735","CH HY GERMISTON EDENVALE","9","Checkers Hyper","CA","Checkers GN Division","20","FALSE","FALSE","FALSE","FALSE"
"368","1624","SR LICHTENBURG","5","Shoprite","SR","Northern Cape and O.F.S Division","5","FALSE","FALSE","TRUE","FALSE"
"167","513","SR THABA 'NCHU","5","Shoprite","SR","Northern Cape and O.F.S Division","5","FALSE","FALSE","FALSE","FALSE"
"1117","64638","SR MTHEMBU VILLAGE","5","Shoprite","SR","Gauteng Division","6","FALSE","FALSE","FALSE","FALSE"
"927","50801","CH BOARDWALK RICHARDSBAY","1","Checkers","CH","Natal Division","3","FALSE","FALSE","TRUE","FALSE"
"373","8008","SR ISIPINGO","5","Shoprite","SR","Natal Division","3","FALSE","FALSE","FALSE","FALSE"
"1021","55047","CH RIVERWALK","1","Checkers","CH","Checkers GN Division","20","FALSE","FALSE","TRUE","FALSE"
"109","1878","CH OVERPORT","1","Checkers","CH","Natal Division","3","FALSE","FALSE","FALSE","FALSE"
"1118","63496","LS SOSHANGUVE","17","LiquorShop Shoprite","LS","Northern Division","4","FALSE","FALSE","FALSE","FALSE"
"1","6250","CH GRAHAMSTOWN","1","Checkers","CH","Eastern Cape Division","1","FALSE","FALSE","TRUE","FALSE"
"1112","36283","SR THEKU MALL","5","Shoprite","SR","Natal Division","3","FALSE","FALSE","FALSE","FALSE"
"324","1315","SR VREDENBURG","5","Shoprite","SR","Western Cape Division","2","FALSE","FALSE","TRUE","FALSE"
"139","7036","SR MIDDELBURG CBD","5","Shoprite","SR","Northern Division","4","FALSE","FALSE","TRUE","FALSE"
"220","1006","SR FLORIDA","5","Shoprite","SR","Gauteng Division","6","FALSE","FALSE","TRUE","FALSE"
"1121","39299","SR NYANGA JUNCTION","5","Shoprite","SR","Western Cape Division","2","FALSE","FALSE","FALSE","FALSE"
"1122","38578","SR MEADOWLANDS","5","Shoprite","SR","Gauteng Division","6","FALSE","FALSE","FALSE","FALSE"
"1124","36819","CH KALAHARI MALL","1","Checkers","CH","Northern Cape and O.F.S Division","5","FALSE","FALSE","FALSE","FALSE"
"1125","38586","SR NOORDGESIG","5","Shoprite","SR","Gauteng Division","6","FALSE","FALSE","FALSE","FALSE"
"1126","64874","SR CHAMDOR","5","Shoprite","SR","Gauteng Division","6","FALSE","FALSE","FALSE","FALSE"
"142","7183","SR ELLISRAS","5","Shoprite","SR","Northern Division","4","FALSE","FALSE","TRUE","FALSE"
"385","7353","SR SECUNDA","1","Checkers","CH","Gauteng Division","6","FALSE","FALSE","TRUE","FALSE"
"11","822","SR HUMANSDORP","5","Shoprite","SR","Eastern Cape Division","1","FALSE","FALSE","TRUE","FALSE"
"1128","36144","CH CRADLE STONE","1","Checkers","CH","Checkers GN Division","20","FALSE","FALSE","FALSE","FALSE"
"1133","38227","CH PINESLOPES","1","Checkers","CH","Checkers GN Division","20","FALSE","FALSE","FALSE","FALSE"
"820","42981","CH PROTEA HEIGHTS","1","Checkers","CH","Western Cape Division","2","FALSE","FALSE","TRUE","FALSE"
"1138","37417","SR GABLES","5","Shoprite","SR","Swaziland Division","19","FALSE","FALSE","FALSE","FALSE"
"1131","39176","SR JOUBERTON","5","Shoprite","SR","Northern Division","4","FALSE","FALSE","FALSE","FALSE"
"845","45094","SR KHAYELITSHA","5","Shoprite","SR","Western Cape Division","2","FALSE","FALSE","TRUE","FALSE"
"887","49331","SR SITEKI","5","Shoprite","SR","Swaziland Division","19","FALSE","FALSE","FALSE","FALSE"
"1127","39249","CH BRYAN PARK","1","Checkers","CH","Checkers GN Division","20","FALSE","FALSE","FALSE","FALSE"
"334","1844","CH SEA POINT","1","Checkers","CH","Western Cape Division","2","FALSE","FALSE","TRUE","FALSE"
"1146","45010","CH GREEN VALLEY","1","Checkers","CH","Checkers GN Division","20","FALSE","FALSE","FALSE","FALSE"
"1148","38251","CH KOSMOSDAL","1","Checkers","CH","Checkers GN Division","20","FALSE","FALSE","FALSE","FALSE"
"1151","36136","CH SUNWARD PARK","1","Checkers","CH","Checkers GN Division","20","FALSE","FALSE","FALSE","FALSE"
"1098","37768","CH HEMINGWAYS MALL","1","Checkers","CH","Eastern Cape Division","1","FALSE","FALSE","TRUE","FALSE"
"276","686","CH NORKEM PARK","1","Checkers","CH","Checkers GN Division","20","FALSE","FALSE","TRUE","FALSE"
"1135","39223","SR MHLUZI","5","Shoprite","SR","Northern Division","4","FALSE","FALSE","FALSE","FALSE"
"1129","38235","CHHY SECUNDA MALL","9","Checkers Hyper","CA","Checkers GN Division","20","FALSE","FALSE","FALSE","FALSE"
"1132","39184","SR MORULENG","5","Shoprite","SR","Northern Division","4","FALSE","FALSE","FALSE","FALSE"
"783","41943","SR MKHAZA","5","Shoprite","SR","Western Cape Division","2","FALSE","FALSE","TRUE","FALSE"
"1150","38243","CH RIVONIA VILLAGE","1","Checkers","CH","Checkers GN Division","20","FALSE","FALSE","FALSE","FALSE"
"63","2531","SR UMGENI ROAD","5","Shoprite","SR","Natal Division","3","FALSE","FALSE","FALSE","FALSE"
"1153","30562","CH LORRAINE","1","Checkers","CH","Eastern Cape Division","1","FALSE","FALSE","FALSE","FALSE"
"1152","64670","SR KEETMANSHOOP","5","Shoprite","SR","Namibia Division","8","FALSE","FALSE","FALSE","FALSE"
"1140","38447","SR SESHEGO","5","Shoprite","SR","Northern Division","4","FALSE","FALSE","FALSE","FALSE"
"1130","38853","SR JOZINI","5","Shoprite","SR","Natal Division","3","FALSE","FALSE","FALSE","FALSE"
"1154","64947","SU MANHICA","19","Super Usave","SU","Mozambique Division","16","FALSE","FALSE","FALSE","FALSE"
"1155","58702","SU Xai Xai","19","Super Usave","SU","Mozambique Division","16","FALSE","FALSE","FALSE","FALSE"
"1156","69808","LS SESHEGO","17","LiquorShop Shoprite","LS","Northern Division","4","FALSE","FALSE","FALSE","FALSE"
"1157","39118","LS PHILIPPI","17","LiquorShop Shoprite","LS","Western Cape Division","2","FALSE","FALSE","FALSE","FALSE"
"1158","37255","CH ZEVENWACHT","1","Checkers","CH","Western Cape Division","2","FALSE","FALSE","FALSE","FALSE"
"1159","63551","SR MQANDULI","5","Shoprite","SR","Eastern Cape Division","1","FALSE","FALSE","FALSE","FALSE"
"1137","37873","SR ELUKWATINI","5","Shoprite","SR","Northern Division","4","FALSE","FALSE","FALSE","FALSE"
"1136","39095","LS SIR LOWRYS","17","LiquorShop Shoprite","LS","Western Cape Division","2","FALSE","FALSE","FALSE","FALSE"
"1160","80290","LC GREEN VALLEY","16","LiquorShop Checkers","LC","Checkers GN Division","20","FALSE","FALSE","FALSE","FALSE"
"1110","32742","LS MODJADJI","17","LiquorShop Shoprite","LS","Northern Division","4","FALSE","FALSE","FALSE","FALSE"
"316","2379","SR PAROW PARK","2","Super Store","SS","Western Cape Division","2","FALSE","FALSE","TRUE","FALSE"
"1123","36291","SR EZAKHENI MALL","5","Shoprite","SR","Natal Division","3","FALSE","FALSE","FALSE","FALSE"
"1161","63967","SR SUMBE","5","Shoprite","SR","Angola","26","FALSE","FALSE","FALSE","FALSE"
"1033","30716","SR OTTERY","5","Shoprite","SR","Western Cape Division","2","TRUE","FALSE","TRUE","FALSE"
"1013","63501","SR MONTAGU","5","Shoprite","SR","Western Cape Division","2","FALSE","FALSE","TRUE","FALSE"
"782","41951","SR PHILIPPI","5","Shoprite","SR","Western Cape Division","2","FALSE","FALSE","FALSE","FALSE"
"852","46260","SR ROCKLANDS","5","Shoprite","SR","Western Cape Division","2","TRUE","FALSE","TRUE","FALSE"
"848","46367","SR STEENBERG","5","Shoprite","SR","Western Cape Division","2","FALSE","FALSE","TRUE","FALSE"
"1069","37912","SR STOCKENSTROOM","5","Shoprite","SR","Western Cape Division","2","FALSE","FALSE","TRUE","FALSE"
"311","393","SR STRAND","5","Shoprite","SR","Western Cape Division","2","FALSE","FALSE","TRUE","FALSE"
"849","46294","SR VAN RIEBEECK STREET","5","Shoprite","SR","Western Cape Division","2","FALSE","FALSE","TRUE","FALSE"
"1149","36275","SR GINGINDLOVU","5","Shoprite","SR","Natal Division","3","FALSE","FALSE","FALSE","FALSE"
"355","1860","SR WELLINGTON","5","Shoprite","SR","Western Cape Division","2","FALSE","FALSE","TRUE","FALSE"
"1119","64646","CH BAYSIDE (MOSSEL BAY)","1","Checkers","CH","Eastern Cape Division","1","FALSE","FALSE","FALSE","FALSE"
"1070","36186","CH NONESI MALL","1","Checkers","CH","Eastern Cape Division","1","FALSE","FALSE","FALSE","FALSE"
"1022","30148","CH VINCENT","1","Checkers","CH","Eastern Cape Division","1","FALSE","FALSE","TRUE","FALSE"
"4","2044","SR GREENACRES","2","Super Store","SS","Eastern Cape Division","1","FALSE","FALSE","TRUE","FALSE"
"320","238","SR KHAYELITSHA","5","Shoprite","SR","Western Cape Division","2","FALSE","FALSE","TRUE","FALSE"
"1073","48903","SR KHAYELITSHA SITE C ","5","Shoprite","SR","Western Cape Division","2","FALSE","FALSE","TRUE","FALSE"
"1113","38374","SR NAMAKGALE","5","Shoprite","SR","Northern Division","4","FALSE","FALSE","FALSE","FALSE"
"1162","64905","LC BRYANSTON","16","LiquorShop Checkers","LC","Checkers GN Division","20","FALSE","FALSE","FALSE","FALSE"
"329","1137","SR MOWBRAY","5","Shoprite","SR","Western Cape Division","2","FALSE","FALSE","TRUE","FALSE"
"1163","80761","LS ROSENTTENVILLE","17","LiquorShop Shoprite","LS","Gauteng Division","6","FALSE","FALSE","FALSE","FALSE"
"1164","39053","LS JABULANI","17","LiquorShop Shoprite","LS","Gauteng Division","6","FALSE","FALSE","FALSE","FALSE"
"1165","66452","LS ELDORADO PARK","17","LiquorShop Shoprite","LS","Gauteng Division","6","FALSE","FALSE","FALSE","FALSE"
"1168","33007","SR NHLANGANO","5","Shoprite","SR","Swaziland Division","19","FALSE","FALSE","FALSE","FALSE"
"1169","63975","SR VIANA","5","Shoprite","SR","Angola","26","FALSE","FALSE","FALSE","FALSE"
"1170","64971","SR NOVA VIDA","5","Shoprite","SR","Angola","26","FALSE","FALSE","FALSE","FALSE"
"289","1048","SR BELLVILLE","5","Shoprite","SR","Western Cape Division","2","FALSE","FALSE","TRUE","FALSE"
"859","46189","SR BISHOP LAVIS","5","Shoprite","SR","Western Cape Division","2","TRUE","FALSE","TRUE","FALSE"
"290","343","SR BOTHASIG","5","Shoprite","SR","Western Cape Division","2","FALSE","FALSE","TRUE","FALSE"
"865","43856","SR VOSLOORUS","5","Shoprite","SR","Gauteng Division","6","FALSE","FALSE","FALSE","FALSE"
"1139","38439","SR ACORNHOEK PLAZA","5","Shoprite","SR","Northern Division","4","FALSE","FALSE","FALSE","FALSE"
"293","123","CH DURBANVILLE","1","Checkers","CH","Western Cape Division","2","FALSE","FALSE","TRUE","FALSE"
"434","5204","CH CENTURY CITY","1","Checkers","CH","Western Cape Division","2","FALSE","FALSE","TRUE","FALSE"
"310","2183","CH EIKESTAD MALL","1","Checkers","CH","Western Cape Division","2","FALSE","FALSE","TRUE","FALSE"
"302","1373","CH KLOOF STREET","1","Checkers","CH","Western Cape Division","2","FALSE","FALSE","TRUE","FALSE"
"1076","36754","SR MASERU MALL","5","Shoprite","SR","Lesotho Divsion","17","FALSE","FALSE","FALSE","FALSE"
"825","44755","CH PAARL NORTH","1","Checkers","CH","Western Cape Division","2","FALSE","FALSE","TRUE","FALSE"
"321","6462","CH MALMESBURY","1","Checkers","CH","Western Cape Division","2","FALSE","FALSE","TRUE","FALSE"
"957","54952","CH VAN DER LINGEN","1","Checkers","CH","Western Cape Division","2","FALSE","FALSE","TRUE","FALSE"
"867","45078","CH MOUNTAIN MILL","1","Checkers","CH","Western Cape Division","2","FALSE","FALSE","TRUE","FALSE"
"336","1569","CH SOMERSET WEST","1","Checkers","CH","Western Cape Division","2","FALSE","FALSE","TRUE","FALSE"
"1017","63098","CH SWELLEN MARK ","1","Checkers","CH","Western Cape Division","2","FALSE","FALSE","TRUE","FALSE"
"1077","37776","SU MOBENI","19","Super Usave","SU","Swaziland Division","19","FALSE","FALSE","FALSE","FALSE"
"1134","38269","CH MODIMOLLE","1","Checkers","CH","Checkers GN Division","20","FALSE","FALSE","FALSE","FALSE"
"122","961","SR BRITS","5","Shoprite","SR","Northern Division","4","FALSE","FALSE","TRUE","FALSE"
"1171","36233","SR HARDING","5","Shoprite","SR","Natal Division","3","FALSE","FALSE","FALSE","FALSE"
"1172","38382","SR KWA GUQA","5","Shoprite","SR","Northern Division","4","FALSE","FALSE","FALSE","FALSE"
"1174","66892","SR LETHLABILE","5","Shoprite","SR","Northern Division","4","FALSE","FALSE","FALSE","FALSE"
"1176","36259","SR MTUBA MALL","5","Shoprite","SR","Natal Division","3","FALSE","FALSE","FALSE","FALSE"
"1179","81806","SR BOKSBURG NORTH","5","Shoprite","SR","Gauteng Division","6","FALSE","FALSE","FALSE","FALSE"
"1182","38609","SR TSAKANE CORNER","5","Shoprite","SR","Gauteng Division","6","FALSE","FALSE","FALSE","FALSE"
"1183","38861","SR KWAMNYANDU","5","Shoprite","SR","Natal Division","3","FALSE","FALSE","FALSE","FALSE"
"257","571","SR POTCHEFSTROOM","5","Shoprite","SR","Northern Division","4","FALSE","FALSE","TRUE","FALSE"
"1188","38845","SM ULUNDI","22","Shoprite Mini","SM","Natal Division","3","FALSE","FALSE","FALSE","FALSE"
"1189","63527","SM LADYSMITH","22","Shoprite Mini","SM","Natal Division","3","FALSE","FALSE","FALSE","FALSE"
"1190","64727","SR OKAHANDJA","5","Shoprite","SR","Namibia Division","8","FALSE","FALSE","FALSE","FALSE"
"1191","81814","SR ROODEKOP","5","Shoprite","SR","Gauteng Division","6","FALSE","FALSE","FALSE","FALSE"
"1173","38722","CH WATERFALL CORNER","1","Checkers","CH","Checkers GN Division","20","FALSE","FALSE","FALSE","FALSE"
"1178","39168","CH HY SOMERSET WEST (HELDERBERG MALL)","9","Checkers Hyper","CA","Western Cape Division","2","FALSE","FALSE","FALSE","FALSE"
"1187","39281","SR RETREAT","5","Shoprite","SR","Western Cape Division","2","FALSE","FALSE","FALSE","FALSE"
"1175","80779","SR NUMBI","5","Shoprite","SR","Northern Division","4","FALSE","FALSE","FALSE","FALSE"
"1193","39192","SR ZEBEDIELA           ","5","Shoprite","SR","Northern Division","4","FALSE","FALSE","FALSE","FALSE"
"1194","38730","CHHY FOREST HILL    ","9","Checkers Hyper","CA","Checkers GN Division","20","FALSE","FALSE","FALSE","FALSE"
"1196","64719","SR REHOBOTH ","5","Shoprite","SR","Namibia Division","8","FALSE","FALSE","FALSE","FALSE"
"1147","64167","SR OUTAPI","5","Shoprite","SR","Namibia Division","8","FALSE","FALSE","FALSE","FALSE"
"1198","82072","SR Klip Street Groblersdal ","5","Shoprite","SR","Northern Division","4","FALSE","FALSE","FALSE","FALSE"
"1166","39079","LS KLOOF STREET","16","LiquorShop Checkers","LC","Western Cape Division","2","FALSE","FALSE","FALSE","FALSE"
"1185","82064","SM LULEKANI","22","Shoprite Mini","SM","Northern Division","4","FALSE","FALSE","FALSE","FALSE"
"1192","39207","SR SOSHANGUVE CROSSING","5","Shoprite","SR","Northern Division","4","FALSE","FALSE","FALSE","FALSE"
"271","7701","SR MBABANE","2","Super Store","SS","Swaziland Division","19","FALSE","FALSE","FALSE","FALSE"
"1177","39126","SR DU NOON","5","Shoprite","SR","Western Cape Division","2","FALSE","FALSE","FALSE","FALSE"
"1195","39150","CH VREDENDAL","1","Checkers","CH","Western Cape Division","2","FALSE","FALSE","FALSE","FALSE"
"1120","38594","SR CLAYVILLE","5","Shoprite","SR","Gauteng Division","6","FALSE","FALSE","FALSE","FALSE"
"1199","66436","SR MAYFIELD SQUARE","5","Shoprite","SR","Gauteng Division","6","FALSE","FALSE","FALSE","FALSE"
"866","47915","SR SOSHANGUVE","5","Shoprite","SR","Northern Division","4","FALSE","FALSE","FALSE","FALSE"
"1200","52853","CH MAFIKENG","1","Checkers","CH","Northern Cape and O.F.S Division","5","FALSE","FALSE","FALSE","FALSE"
"982","55039","CH BONAERO PARK","1","Checkers","CH","Checkers GN Division","20","FALSE","FALSE","TRUE","FALSE"
"1056","31209","MR PLUS SEASIDE VILLAGE","18","MediRite Plus","MRP","Western Cape Division","2","FALSE","FALSE","FALSE","FALSE"
"1202","8448","SR BEIRA","5","Shoprite","SR","Mozambique Division","16","FALSE","FALSE","FALSE","FALSE"
"1203","44365","SR NAMPULA","5","Shoprite","SR","Mozambique Division","16","FALSE","FALSE","FALSE","FALSE"
"1204","8430","SR CHIMOIO","5","Shoprite","SR","Mozambique Division","16","FALSE","FALSE","FALSE","FALSE"
"1206","80216","LS MQANDULI","17","LiquorShop Shoprite","LS","Eastern Cape Division","1","FALSE","FALSE","FALSE","FALSE"
"1207","64913","CH THE GROVE","1","Checkers","CH","Namibia Division","8","FALSE","FALSE","FALSE","FALSE"
"1208","38900","SR Newtown","5","Shoprite","SR","Gauteng Division","6","FALSE","FALSE","FALSE","FALSE"
"1211","83361","SR PALEDI","5","Shoprite","SR","Northern Division","4","FALSE","FALSE","FALSE","FALSE"
"1209","36267","SR MANDENI","5","Shoprite","SR","Natal Division","3","FALSE","FALSE","FALSE","FALSE"
"1212","64581","CH HEIDELBERG","1","Checkers","CH","Checkers GN Division","20","FALSE","FALSE","FALSE","FALSE"
"1214","64604","CH Wonderpark","1","Checkers","CH","Checkers GN Division","20","FALSE","FALSE","FALSE","FALSE"
"1213","64612","CH Bela Bela","1","Checkers","CH","Checkers GN Division","20","FALSE","FALSE","FALSE","FALSE"
"1219","80258","SR STRETFORD STATION ","5","Shoprite","SR","Gauteng Division","6","FALSE","FALSE","FALSE","FALSE"
"1220","64492","CH MATLOSANA","1","Checkers","CH","Checkers GN Division","20","FALSE","FALSE","FALSE","FALSE"
"1221","55021","CH FLAMWOOD","1","Checkers","CH","Checkers GN Division","20","FALSE","FALSE","FALSE","FALSE"
"1222","91817","LS NEWTOWN","17","LiquorShop Shoprite","LS","Gauteng Division","6","FALSE","FALSE","FALSE","FALSE"
"1223","83395","SR Stutterheim","5","Shoprite","SR","Eastern Cape Division","1","FALSE","FALSE","FALSE","FALSE"
"1224","81490","SM Ghanzi","22","Shoprite Mini","SM","Botswana Division","18","FALSE","FALSE","FALSE","FALSE"
"1226","83109","SR BENGUELA","5","Shoprite","SR","Angola","26","FALSE","FALSE","FALSE","FALSE"
"1227","91061","SR PELICAN PARK","5","Shoprite","SR","Western Cape Division","2","FALSE","FALSE","FALSE","FALSE"
"1228","91249","SM NAFCOC SOSHANGUVE ","22","Shoprite Mini","SM","Northern Division","4","FALSE","FALSE","FALSE","FALSE"
"1225","37140","CH HY Brookside","9","Checkers Hyper","CA","Natal Division","3","FALSE","FALSE","FALSE","FALSE"
"345","2141","SR MAITLAND","5","Shoprite","SR","Western Cape Division","2","FALSE","FALSE","TRUE","FALSE"
"1235","93372","SR RUNDU MALL ","5","Shoprite","SR","Namibia Division","8","FALSE","FALSE","FALSE","FALSE"
"1236","82713","SR IXOPO","5","Shoprite","SR","Natal Division","3","FALSE","FALSE","FALSE","FALSE"
"1237","85999","SR DAWN PARK","5","Shoprite","SR","Gauteng Division","6","FALSE","FALSE","FALSE","FALSE"
"1238","39142","CH VERGELEGEN PLEIN","1","Checkers","CH","Western Cape Division","2","FALSE","FALSE","FALSE","FALSE"
"1239","50877","SR LANGA","5","Shoprite","SR","Western Cape Division","2","FALSE","FALSE","FALSE","FALSE"
"1240","83345","SR BAFOKENG PLAZA","5","Shoprite","SR","Northern Division","4","FALSE","FALSE","FALSE","FALSE"
"1241","83353","SR CANARY WALK ","5","Shoprite","SR","Northern Division","4","FALSE","FALSE","FALSE","FALSE"
"1242","39215","SR EMOYENI ","5","Shoprite","SR","Northern Division","4","FALSE","FALSE","FALSE","FALSE"
"1243","83044","CH PARYS 2","1","Checkers","CH","Northern Cape and O.F.S Division","5","FALSE","FALSE","FALSE","FALSE"
"1244","82593","CH WATERCREST","1","Checkers","CH","Natal Division","3","FALSE","FALSE","FALSE","FALSE"
"1245","92172","SR TUGELA FERRY","5","Shoprite","SR","Natal Division","3","FALSE","FALSE","FALSE","FALSE"
"1246","80460","CHHY BAY WEST ","9","Checkers Hyper","CA","Eastern Cape Division","1","FALSE","FALSE","FALSE","FALSE"
"1248","63569","CH NGEBS CITY","1","Checkers","CH","Eastern Cape Division","1","FALSE","FALSE","FALSE","FALSE"
"1249","52798","CH KATHU","1","Checkers","CH","Northern Cape and O.F.S Division","5","FALSE","FALSE","FALSE","FALSE"
"1250","36225","SR LUSIKISIKI 2","5","Shoprite","SR","Natal Division","3","FALSE","FALSE","FALSE","FALSE"
"1251","93479","SR TSAKANE CENTRE","5","Shoprite","SR","Gauteng Division","6","FALSE","FALSE","FALSE","FALSE"
"1252","91118","CHHY NEW MENLYN","9","Checkers Hyper","CA","Checkers GN Division","20","FALSE","FALSE","FALSE","FALSE"
"1253","36801","CH WOODLANDS","1","Checkers","CH","Northern Cape and O.F.S Division","5","FALSE","FALSE","FALSE","FALSE"
"1254","68381","SM OSHIKANGO","22","Shoprite Mini","SM","Namibia Division","8","FALSE","FALSE","FALSE","FALSE"
"1255","31982","SR IKAGENG","5","Shoprite","SR","Northern Division","4","FALSE","FALSE","FALSE","FALSE"
"1256","93110","SR MALAMULELE CROSSING","5","Shoprite","SR","Northern Division","4","FALSE","FALSE","FALSE","FALSE"
"1258","67628","SR MARBLE HALL","5","Shoprite","SR","Northern Division","4","FALSE","FALSE","FALSE","FALSE"
"1259","66737","LS BAFOKENG PLAZA","17","LiquorShop Shoprite","LS","Northern Division","4","FALSE","FALSE","FALSE","FALSE"
"1260","87268","CH MALL OF THE SOUTH","1","Checkers","CH","Checkers GN Division","20","FALSE","FALSE","FALSE","FALSE"
"1261","65448","SM KLAPMUTS","22","Shoprite Mini","SM","Western Cape Division","2","FALSE","FALSE","FALSE","FALSE"
"1262","69793","SM MKUZE","22","Shoprite Mini","SM","Natal Division","3","FALSE","FALSE","FALSE","FALSE"
"1263","31576","SM HENDRINA CHURCH STREET","22","Shoprite Mini","SM","Gauteng Division","6","FALSE","FALSE","FALSE","FALSE"
"1264","67539","SM BRAAMFISHERVILLE","22","Shoprite Mini","SM","Gauteng Division","6","FALSE","FALSE","FALSE","FALSE"
"1266","66868","CH OKAVANGO CROSSING","1","Checkers","CH","Western Cape Division","2","FALSE","FALSE","FALSE","FALSE"
"1267","52811","CH KURUMAN","1","Checkers","CH","Northern Cape and O.F.S Division","5","FALSE","FALSE","FALSE","FALSE"
"1268","91867","CHHY EDEN MEANDER","9","Checkers Hyper","CA","Eastern Cape Division","1","FALSE","FALSE","FALSE","FALSE"
"1269","59782","CHHY NEW MARKET","9","Checkers Hyper","CA","Checkers GN Division","20","FALSE","FALSE","FALSE","FALSE"
"1231","36673","LS SEBOKENG PLAZA","17","LiquorShop Shoprite","LS","Gauteng Division","6","FALSE","FALSE","FALSE","FALSE"
"1270","69549","LC SELCOURT","16","LiquorShop Checkers","LC","Checkers GN Division","20","FALSE","FALSE","FALSE","FALSE"
"1271","58477","CH WINGTIP","1","Checkers","CH","Checkers GN Division","20","FALSE","FALSE","FALSE","FALSE"
"1272","91875","SR GILWELL","5","Shoprite","SR","Eastern Cape Division","1","FALSE","FALSE","FALSE","FALSE"
"1274","67929","CHHY SUNVALLEY","9","Checkers Hyper","CA","Western Cape Division","2","FALSE","FALSE","FALSE","FALSE"
"1275","34045","SM EVATON WEST","22","Shoprite Mini","SM","Gauteng Division","6","FALSE","FALSE","FALSE","FALSE"
"1276","4088","CHHY SUNVALLEY COFFEE SHOP","23","Coffee Shop","CS","Western Cape Division","2","FALSE","FALSE","FALSE","FALSE"
"1277","33984","SM MOHLAKENG","22","Shoprite Mini","SM","Northern Division","4","FALSE","FALSE","FALSE","FALSE"
"1278","43597","SR ZWELETEMBA","5","Shoprite","SR","Western Cape Division","2","FALSE","FALSE","FALSE","FALSE"
"1279","69971","LS Mayfield Square","17","LiquorShop Shoprite","LS","Gauteng Division","6","FALSE","FALSE","FALSE","FALSE"
"1285","63014","LS Sasolburg","17","LiquorShop Shoprite","LS","Northern Cape and O.F.S Division","5","FALSE","FALSE","FALSE","FALSE"
"1284","44030","LS ENNERDALE","17","LiquorShop Shoprite","LS","Gauteng Division","6","FALSE","FALSE","FALSE","FALSE"
"1288","52293","SM Jeffrey's Bay","22","Shoprite Mini","SM","Eastern Cape Division","1","FALSE","FALSE","FALSE","FALSE"
"1265","66850","SM FERNIE VILLAGE","22","Shoprite Mini","SM","Gauteng Division","6","FALSE","FALSE","FALSE","FALSE"
"1289","51289","SR INANDA SAPS","5","Shoprite","SR","Natal Division","3","FALSE","FALSE","FALSE","FALSE"
"1290","66143","SR BOITUMELO JUNCTION","5","Shoprite","SR","Northern Cape and O.F.S Division","5","FALSE","FALSE","FALSE","FALSE"
"1291","34053","LC YORK STREET","16","LiquorShop Checkers","LC","Eastern Cape Division","1","FALSE","FALSE","FALSE","FALSE"
"1292","36110","CH OLYMPUS VILLAGE","1","Checkers","CH","Checkers GN Division","20","FALSE","FALSE","FALSE","FALSE"
"1293","69604","SR MALELANE","5","Shoprite","SR","Northern Division","4","FALSE","FALSE","FALSE","FALSE"
"1294","87276","CHHY MALL OF AFRICA","9","Checkers Hyper","CA","DRC (Democratic Republic of Congo)","28","FALSE","FALSE","FALSE","FALSE"
"307","6412","SR MELODY WALK","5","Shoprite","SR","Western Cape Division","2","FALSE","FALSE","TRUE","FALSE"